TPI/TPI-Codigo/Top_tb.vcd
$date
	Mon Nov 06 10:51:12 2023
$end
$version
	Icarus Verilog
$end
$timescale
	1ps
$end
$scope module Top_tb $end
$var wire 32 ! sal [31:0] $end
$var wire 16 " addressSal [15:0] $end
$var reg 1 # clk $end
$scope module UUT $end
$var wire 16 $ addressSal [15:0] $end
$var wire 1 # clk $end
$var wire 32 % sal [31:0] $end
$var wire 32 & s_writeData [31:0] $end
$var wire 32 ' s_readData [31:0] $end
$var wire 16 ( s_pc [15:0] $end
$var wire 32 ) s_instr [31:0] $end
$var wire 16 * s_address [15:0] $end
$var wire 1 + s_WE $end
$scope module Memory $end
$var wire 1 # clk $end
$var wire 32 , writeData [31:0] $end
$var wire 32 - readData [31:0] $end
$var wire 16 . pc [15:0] $end
$var wire 32 / instr [31:0] $end
$var wire 16 0 address [15:0] $end
$var wire 1 + WE $end
$scope module dataMem $end
$var wire 1 # clk $end
$var wire 32 1 rd [31:0] $end
$var wire 1 + we $end
$var wire 32 2 wd [31:0] $end
$var wire 16 3 address [15:0] $end
$var integer 32 4 i [31:0] $end
$upscope $end
$scope module instrMem $end
$var wire 32 5 DEBUGinstr16 [31:0] $end
$var wire 32 6 DEBUGinstr20 [31:0] $end
$var wire 32 7 instr [31:0] $end
$var wire 16 8 pc [15:0] $end
$upscope $end
$upscope $end
$scope module RV $end
$var wire 1 # clk $end
$var wire 32 9 instr [31:0] $end
$var wire 32 : readData [31:0] $end
$var wire 1 ; s_zero $end
$var wire 32 < writeData [31:0] $end
$var wire 2 = s_resSrc [1:0] $end
$var wire 1 > s_regWrite $end
$var wire 7 ? s_op [6:0] $end
$var wire 1 @ s_jump $end
$var wire 2 A s_immSrc [1:0] $end
$var wire 1 B s_f7 $end
$var wire 3 C s_f3 [2:0] $end
$var wire 1 D s_branch $end
$var wire 1 E s_ALUSrc $end
$var wire 3 F s_ALUControl [2:0] $end
$var wire 16 G pc [15:0] $end
$var wire 16 H address [15:0] $end
$var wire 1 + WE $end
$scope module DataPath $end
$var wire 1 # clk $end
$var wire 32 I instr [31:0] $end
$var wire 16 J pc [15:0] $end
$var wire 32 K readData [31:0] $end
$var wire 32 L writeData [31:0] $end
$var wire 1 ; zero $end
$var wire 32 M s_srcB [31:0] $end
$var wire 32 N s_srcA [31:0] $end
$var wire 32 O s_res [31:0] $end
$var wire 32 P s_rd2 [31:0] $end
$var wire 16 Q s_pcNext [15:0] $end
$var wire 16 R s_pcJump [15:0] $end
$var wire 16 S s_pcFinal [15:0] $end
$var wire 16 T s_pc [15:0] $end
$var wire 32 U s_immExt [31:0] $end
$var wire 16 V s_addSrc [15:0] $end
$var wire 32 W s_ALURes [31:0] $end
$var wire 2 X resSrc [1:0] $end
$var wire 1 > regWrite $end
$var wire 7 Y op [6:0] $end
$var wire 1 @ jump $end
$var wire 2 Z immSrc [1:0] $end
$var wire 1 B f7 $end
$var wire 3 [ f3 [2:0] $end
$var wire 1 D branch $end
$var wire 16 \ address [15:0] $end
$var wire 1 E ALUSrc $end
$var wire 3 ] ALUControl [2:0] $end
$var reg 16 ^ cuatro [15:0] $end
$scope module ALU1 $end
$var wire 32 _ res [31:0] $end
$var wire 1 ; zero $end
$var wire 32 ` srcB [31:0] $end
$var wire 32 a srcA [31:0] $end
$var wire 3 b ALUControl [2:0] $end
$var reg 32 c aux [31:0] $end
$upscope $end
$scope module AdderPCJump $end
$var wire 16 d op1 [15:0] $end
$var wire 16 e res [15:0] $end
$var wire 16 f op2 [15:0] $end
$upscope $end
$scope module AdderPCNext $end
$var wire 16 g res [15:0] $end
$var wire 16 h op2 [15:0] $end
$var wire 16 i op1 [15:0] $end
$upscope $end
$scope module MultBranch $end
$var wire 16 j e1 [15:0] $end
$var wire 16 k e2 [15:0] $end
$var wire 16 l sal [15:0] $end
$var wire 1 D sel $end
$var reg 16 m aux [15:0] $end
$upscope $end
$scope module MultData $end
$var wire 32 n e1 [31:0] $end
$var wire 32 o e2 [31:0] $end
$var wire 32 p e3 [31:0] $end
$var wire 32 q e4 [31:0] $end
$var wire 32 r sal [31:0] $end
$var wire 2 s sel [1:0] $end
$var reg 32 t aux [31:0] $end
$upscope $end
$scope module MultJump $end
$var wire 16 u e1 [15:0] $end
$var wire 16 v e2 [15:0] $end
$var wire 16 w sal [15:0] $end
$var wire 1 @ sel $end
$var reg 16 x aux [15:0] $end
$upscope $end
$scope module MultSrcB $end
$var wire 32 y sal [31:0] $end
$var wire 1 E sel $end
$var wire 32 z e2 [31:0] $end
$var wire 32 { e1 [31:0] $end
$var reg 32 | aux [31:0] $end
$upscope $end
$scope module PCReg $end
$var wire 1 # clk $end
$var wire 16 } pc [15:0] $end
$var wire 16 ~ pcNext [15:0] $end
$var reg 16 !" count_reg [15:0] $end
$upscope $end
$scope module regBank $end
$var event 1 "" _ivl_18 $end
$var wire 5 #" a1 [4:0] $end
$var wire 5 $" a2 [4:0] $end
$var wire 5 %" a3 [4:0] $end
$var wire 1 # clk $end
$var wire 32 &" rd1 [31:0] $end
$var wire 32 '" rd2 [31:0] $end
$var wire 32 (" wd3 [31:0] $end
$var wire 1 > we $end
$var integer 32 )" i [31:0] $end
$upscope $end
$scope module sExt $end
$var wire 32 *" instr [31:0] $end
$var wire 2 +" src [1:0] $end
$var wire 32 ," immExt [31:0] $end
$var reg 32 -" immaux [31:0] $end
$upscope $end
$upscope $end
$scope module unitControl $end
$var wire 3 ." f3 [2:0] $end
$var wire 1 B f7 $end
$var wire 7 /" op [6:0] $end
$var wire 1 ; zero $end
$var wire 2 0" resSrc [1:0] $end
$var wire 1 > regWrite $end
$var wire 1 + memWrite $end
$var wire 1 @ jump $end
$var wire 2 1" immSrc [1:0] $end
$var wire 1 D branch $end
$var wire 1 E aluSrc $end
$var wire 2 2" ALUop [1:0] $end
$var wire 3 3" ALUcontrol [2:0] $end
$scope module ALUDecoder $end
$var wire 3 4" aluControl [2:0] $end
$var wire 3 5" f3 [2:0] $end
$var wire 1 B f7 $end
$var wire 1 6" op $end
$var wire 2 7" aluOp [1:0] $end
$var reg 3 8" aluControlAux [2:0] $end
$upscope $end
$scope module MainDecoder $end
$var wire 2 9" aluOp [1:0] $end
$var wire 1 E aluSrc $end
$var wire 1 D branch $end
$var wire 2 :" immSrc [1:0] $end
$var wire 1 @ jump $end
$var wire 1 + memWrite $end
$var wire 7 ;" op [6:0] $end
$var wire 1 > regWrite $end
$var wire 2 <" resSrc [1:0] $end
$var reg 2 =" aluOpAux [1:0] $end
$var reg 1 >" aluSrcAux $end
$var reg 1 ?" branchAux $end
$var reg 2 @" immSrcAux [1:0] $end
$var reg 1 A" jumpAux $end
$var reg 1 B" memWriteAux $end
$var reg 1 C" regWriteAux $end
$var reg 2 D" resSrcAux [1:0] $end
$upscope $end
$upscope $end
$upscope $end
$upscope $end
$upscope $end
$scope module dataPath_tb $end
$var reg 1 E" clk $end
$upscope $end
$scope module rv32i_tb $end
$var wire 32 F" writeData [31:0] $end
$var wire 16 G" pc [15:0] $end
$var wire 16 H" address [15:0] $end
$var wire 1 I" WE $end
$var reg 1 J" clk $end
$var reg 32 K" instr [31:0] $end
$var reg 32 L" readData [31:0] $end
$scope module UUT $end
$var wire 1 J" clk $end
$var wire 32 M" instr [31:0] $end
$var wire 32 N" readData [31:0] $end
$var wire 1 O" s_zero $end
$var wire 32 P" writeData [31:0] $end
$var wire 2 Q" s_resSrc [1:0] $end
$var wire 1 R" s_regWrite $end
$var wire 7 S" s_op [6:0] $end
$var wire 1 T" s_jump $end
$var wire 2 U" s_immSrc [1:0] $end
$var wire 1 V" s_f7 $end
$var wire 3 W" s_f3 [2:0] $end
$var wire 1 X" s_branch $end
$var wire 1 Y" s_ALUSrc $end
$var wire 3 Z" s_ALUControl [2:0] $end
$var wire 16 [" pc [15:0] $end
$var wire 16 \" address [15:0] $end
$var wire 1 I" WE $end
$scope module DataPath $end
$var wire 1 J" clk $end
$var wire 32 ]" instr [31:0] $end
$var wire 16 ^" pc [15:0] $end
$var wire 32 _" readData [31:0] $end
$var wire 32 `" writeData [31:0] $end
$var wire 1 O" zero $end
$var wire 32 a" s_srcB [31:0] $end
$var wire 32 b" s_srcA [31:0] $end
$var wire 32 c" s_res [31:0] $end
$var wire 32 d" s_rd2 [31:0] $end
$var wire 16 e" s_pcNext [15:0] $end
$var wire 16 f" s_pcJump [15:0] $end
$var wire 16 g" s_pcFinal [15:0] $end
$var wire 16 h" s_pc [15:0] $end
$var wire 32 i" s_immExt [31:0] $end
$var wire 16 j" s_addSrc [15:0] $end
$var wire 32 k" s_ALURes [31:0] $end
$var wire 2 l" resSrc [1:0] $end
$var wire 1 R" regWrite $end
$var wire 7 m" op [6:0] $end
$var wire 1 T" jump $end
$var wire 2 n" immSrc [1:0] $end
$var wire 1 V" f7 $end
$var wire 3 o" f3 [2:0] $end
$var wire 1 X" branch $end
$var wire 16 p" address [15:0] $end
$var wire 1 Y" ALUSrc $end
$var wire 3 q" ALUControl [2:0] $end
$var reg 16 r" cuatro [15:0] $end
$scope module ALU1 $end
$var wire 32 s" res [31:0] $end
$var wire 1 O" zero $end
$var wire 32 t" srcB [31:0] $end
$var wire 32 u" srcA [31:0] $end
$var wire 3 v" ALUControl [2:0] $end
$var reg 32 w" aux [31:0] $end
$upscope $end
$scope module AdderPCJump $end
$var wire 16 x" op1 [15:0] $end
$var wire 16 y" res [15:0] $end
$var wire 16 z" op2 [15:0] $end
$upscope $end
$scope module AdderPCNext $end
$var wire 16 {" res [15:0] $end
$var wire 16 |" op2 [15:0] $end
$var wire 16 }" op1 [15:0] $end
$upscope $end
$scope module MultBranch $end
$var wire 16 ~" e1 [15:0] $end
$var wire 16 !# e2 [15:0] $end
$var wire 16 "# sal [15:0] $end
$var wire 1 X" sel $end
$var reg 16 ## aux [15:0] $end
$upscope $end
$scope module MultData $end
$var wire 32 $# e1 [31:0] $end
$var wire 32 %# e2 [31:0] $end
$var wire 32 &# e3 [31:0] $end
$var wire 32 '# e4 [31:0] $end
$var wire 32 (# sal [31:0] $end
$var wire 2 )# sel [1:0] $end
$var reg 32 *# aux [31:0] $end
$upscope $end
$scope module MultJump $end
$var wire 16 +# e1 [15:0] $end
$var wire 16 ,# e2 [15:0] $end
$var wire 16 -# sal [15:0] $end
$var wire 1 T" sel $end
$var reg 16 .# aux [15:0] $end
$upscope $end
$scope module MultSrcB $end
$var wire 32 /# sal [31:0] $end
$var wire 1 Y" sel $end
$var wire 32 0# e2 [31:0] $end
$var wire 32 1# e1 [31:0] $end
$var reg 32 2# aux [31:0] $end
$upscope $end
$scope module PCReg $end
$var wire 1 J" clk $end
$var wire 16 3# pc [15:0] $end
$var wire 16 4# pcNext [15:0] $end
$var reg 16 5# count_reg [15:0] $end
$upscope $end
$scope module regBank $end
$var event 1 6# _ivl_18 $end
$var wire 5 7# a1 [4:0] $end
$var wire 5 8# a2 [4:0] $end
$var wire 5 9# a3 [4:0] $end
$var wire 1 J" clk $end
$var wire 32 :# rd1 [31:0] $end
$var wire 32 ;# rd2 [31:0] $end
$var wire 32 <# wd3 [31:0] $end
$var wire 1 R" we $end
$var integer 32 =# i [31:0] $end
$upscope $end
$scope module sExt $end
$var wire 32 ># instr [31:0] $end
$var wire 2 ?# src [1:0] $end
$var wire 32 @# immExt [31:0] $end
$var reg 32 A# immaux [31:0] $end
$upscope $end
$upscope $end
$scope module unitControl $end
$var wire 3 B# f3 [2:0] $end
$var wire 1 V" f7 $end
$var wire 7 C# op [6:0] $end
$var wire 1 O" zero $end
$var wire 2 D# resSrc [1:0] $end
$var wire 1 R" regWrite $end
$var wire 1 I" memWrite $end
$var wire 1 T" jump $end
$var wire 2 E# immSrc [1:0] $end
$var wire 1 X" branch $end
$var wire 1 Y" aluSrc $end
$var wire 2 F# ALUop [1:0] $end
$var wire 3 G# ALUcontrol [2:0] $end
$scope module ALUDecoder $end
$var wire 3 H# aluControl [2:0] $end
$var wire 3 I# f3 [2:0] $end
$var wire 1 V" f7 $end
$var wire 1 J# op $end
$var wire 2 K# aluOp [1:0] $end
$var reg 3 L# aluControlAux [2:0] $end
$upscope $end
$scope module MainDecoder $end
$var wire 2 M# aluOp [1:0] $end
$var wire 1 Y" aluSrc $end
$var wire 1 X" branch $end
$var wire 2 N# immSrc [1:0] $end
$var wire 1 T" jump $end
$var wire 1 I" memWrite $end
$var wire 7 O# op [6:0] $end
$var wire 1 R" regWrite $end
$var wire 2 P# resSrc [1:0] $end
$var reg 2 Q# aluOpAux [1:0] $end
$var reg 1 R# aluSrcAux $end
$var reg 1 S# branchAux $end
$var reg 2 T# immSrcAux [1:0] $end
$var reg 1 U# jumpAux $end
$var reg 1 V# memWriteAux $end
$var reg 1 W# regWriteAux $end
$var reg 2 X# resSrcAux [1:0] $end
$upscope $end
$upscope $end
$upscope $end
$upscope $end
$enddefinitions $end
#0
$dumpvars
b0 X#
1W#
0V#
0U#
b0 T#
0S#
1R#
b10 Q#
b0 P#
b10011 O#
b0 N#
b10 M#
b1 L#
b10 K#
0J#
b0 I#
b1 H#
b1 G#
b10 F#
b0 E#
b0 D#
b10011 C#
b0 B#
b11 A#
b11 @#
b0 ?#
b1100000000010000010011 >#
b100000 =#
b11111111111111111111111111111101 <#
b0 ;#
b0 :#
b1000 9#
b11 8#
b0 7#
16#
b0 5#
b100 4#
b0 3#
b11 2#
b0 1#
b11 0#
b11 /#
b100 .#
b100 -#
b11 ,#
b100 +#
b11111111111111111111111111111101 *#
b0 )#
b11111111111111111111111111111101 (#
bz '#
b100 &#
bx %#
b11111111111111111111111111111101 $#
b100 ##
b100 "#
b11 !#
b100 ~"
b100 }"
b0 |"
b100 {"
b0 z"
b11 y"
b11 x"
b11111111111111111111111111111101 w"
b1 v"
b0 u"
b11 t"
b11111111111111111111111111111101 s"
b100 r"
b1 q"
b1111111111111101 p"
b0 o"
b0 n"
b10011 m"
b0 l"
b11111111111111111111111111111101 k"
b100 j"
b11 i"
b0 h"
b100 g"
b11 f"
b100 e"
b0 d"
b11111111111111111111111111111101 c"
b0 b"
b11 a"
b0 `"
bx _"
b0 ^"
b1100000000010000010011 ]"
b1111111111111101 \"
b0 ["
b1 Z"
1Y"
0X"
b0 W"
0V"
b0 U"
0T"
b10011 S"
1R"
b0 Q"
b0 P"
0O"
bx N"
b1100000000010000010011 M"
bx L"
b1100000000010000010011 K"
0J"
0I"
b1111111111111101 H"
b0 G"
b0 F"
0E"
b0 D"
1C"
0B"
0A"
b0 @"
0?"
1>"
b10 ="
b0 <"
b10011 ;"
b0 :"
b10 9"
b1 8"
b10 7"
06"
b0 5"
b1 4"
b1 3"
b10 2"
b0 1"
b0 0"
b10011 /"
b0 ."
b0 -"
b0 ,"
b0 +"
b1010010011 *"
b100000 )"
b0 ("
b0 '"
b0 &"
b101 %"
b0 $"
b0 #"
1""
b0 !"
b100 ~
b0 }
b0 |
b0 {
b0 z
b0 y
b100 x
b100 w
b0 v
b100 u
b0 t
b0 s
b0 r
bz q
b100 p
b0 o
b0 n
b100 m
b100 l
b0 k
b100 j
b100 i
b0 h
b100 g
b0 f
b0 e
b0 d
b0 c
b1 b
b0 a
b0 `
b0 _
b100 ^
b1 ]
b0 \
b0 [
b0 Z
b10011 Y
b0 X
b0 W
b100 V
b0 U
b0 T
b100 S
b0 R
b100 Q
b0 P
b0 O
b0 N
b0 M
b0 L
b0 K
b0 J
b1010010011 I
b0 H
b0 G
b1 F
1E
0D
b0 C
0B
b0 A
0@
b10011 ?
1>
b0 =
b0 <
0;
b0 :
b1010010011 9
b0 8
b1010010011 7
b100111000001110010011 6
b11111101000011101000111010010011 5
b100000 4
b0 3
b0 2
b0 1
b0 0
b1010010011 /
b0 .
b0 -
b0 ,
0+
b0 *
b1010010011 )
b0 (
b0 '
b0 &
b0 %
b0 $
0#
b0 "
b0 !
$end
#50000
b0 F
b0 ]
b0 b
b0 3"
b0 4"
b0 8"
b0 2"
b0 7"
b0 9"
b0 ="
b1 =
b1 X
b1 s
b1 0"
b1 <"
b1 D"
b1000 g"
b1000 -#
b1000 4#
b1000 .#
b1000 S
b1000 w
b1000 ~
b1000 x
b1011 #"
b11100 %"
b10 C
b10 [
b10 ."
b10 5"
b11 ?
b11 Y
b11 /"
b11 ;"
b1000 &#
b1000 e"
b1000 {"
b1000 +#
b111 f"
b111 y"
b111 ,#
b100 G"
b100 ["
b100 ^"
b100 h"
b100 z"
b100 |"
b100 3#
b100 5#
b1000 p
b1000 Q
b1000 g
b1000 u
b100 R
b100 e
b100 v
b1011010111000000011 )
b1011010111000000011 /
b1011010111000000011 7
b1011010111000000011 9
b1011010111000000011 I
b1011010111000000011 *"
b100 (
b100 .
b100 8
b100 G
b100 J
b100 T
b100 f
b100 h
b100 }
b100 !"
1J"
1E"
1#
#100000
b0 c"
b0 (#
b0 <#
b0 *#
b0 H"
b0 \"
b0 p"
b0 k"
b0 s"
b0 w"
b0 $#
b100 f"
b100 y"
b100 ,#
b0 x"
b0 !#
b0 a"
b0 t"
b0 /#
b0 2#
b0 8#
b0 9#
b0 i"
b0 0#
b0 @#
b0 A#
0J"
0E"
0#
b10011 K"
b10011 M"
b10011 ]"
b10011 >#
#150000
b0 '
b0 -
b0 1
b0 :
b0 K
b0 o
b0 "
b0 $
b0 *
b0 0
b0 3
b0 H
b0 \
b0 O
b0 r
b0 ("
b0 t
b0 W
b0 _
b0 c
b0 n
b1 F
b1 ]
b1 b
b1 3"
b1 4"
b1 8"
16"
b10 2"
b10 7"
b10 9"
b10 ="
0E
0>"
b0 =
b0 X
b0 s
b0 0"
b0 <"
b0 D"
b11100 d
b11100 k
b0 M
b0 `
b0 y
b0 |
b1100 g"
b1100 -#
b1100 4#
b1100 .#
b1100 S
b1100 w
b1100 ~
b1100 x
b0 #"
b11100 $"
b11111 %"
b0 C
b0 [
b0 ."
b0 5"
b110011 ?
b110011 Y
b110011 /"
b110011 ;"
b11100 U
b11100 z
b11100 ,"
b11100 -"
b1100 &#
b1100 e"
b1100 {"
b1100 +#
b1000 f"
b1000 y"
b1000 ,#
b1000 G"
b1000 ["
b1000 ^"
b1000 h"
b1000 z"
b1000 |"
b1000 3#
b1000 5#
b1100 p
b1100 Q
b1100 g
b1100 u
b100100 R
b100100 e
b100100 v
b1110000000000111110110011 )
b1110000000000111110110011 /
b1110000000000111110110011 7
b1110000000000111110110011 9
b1110000000000111110110011 I
b1110000000000111110110011 *"
b1000 (
b1000 .
b1000 8
b1000 G
b1000 J
b1000 T
b1000 f
b1000 h
b1000 }
b1000 !"
1J"
1E"
1#
#200000
b11111111111111111111111111111010 c"
b11111111111111111111111111111010 (#
b11111111111111111111111111111010 <#
b11111111111111111111111111111010 *#
b1111111111111010 H"
b1111111111111010 \"
b1111111111111010 p"
b11111111111111111111111111111010 k"
b11111111111111111111111111111010 s"
b11111111111111111111111111111010 w"
b11111111111111111111111111111010 $#
b1011 f"
b1011 y"
b1011 ,#
b11 x"
b11 !#
b11 a"
b11 t"
b11 /#
b11 2#
b11111111111111111111111111111101 b"
b11111111111111111111111111111101 u"
b11111111111111111111111111111101 :#
b1000 7#
b11 8#
b1000 9#
b11 i"
b11 0#
b11 @#
b11 A#
0J"
0E"
0#
b1101000000010000010011 K"
b1101000000010000010011 M"
b1101000000010000010011 ]"
b1101000000010000010011 >#
#250000
b10000 O
b10000 r
b10000 ("
b10000 t
b1111111111110111 H"
b1111111111110111 \"
b1111111111110111 p"
b10 F
b10 ]
b10 b
b10 3"
b10 4"
b10 8"
b11 A
b11 Z
b11 +"
b11 1"
b11 :"
b11 @"
b10 =
b10 X
b10 s
b10 0"
b10 <"
b10 D"
1@
1A"
b1111111111110100 d
b1111111111110100 k
b11111111111111111111111111110111 c"
b11111111111111111111111111110111 (#
b11111111111111111111111111110111 <#
b11111111111111111111111111110111 *#
b10000 g"
b10000 -#
b10000 4#
b10000 .#
b11111111111111111111111111110111 k"
b11111111111111111111111111110111 s"
b11111111111111111111111111110111 w"
b11111111111111111111111111110111 $#
b0 S
b0 w
b0 ~
b0 x
b11111 #"
b10101 $"
b0 %"
1B
b111 C
b111 [
b111 ."
b111 5"
b1101111 ?
b1101111 Y
b1101111 /"
b1101111 ;"
b11111111111111111111111111110100 U
b11111111111111111111111111110100 z
b11111111111111111111111111110100 ,"
b11111111111111111111111111110100 -"
b10000 &#
b10000 e"
b10000 {"
b10000 +#
b1111 f"
b1111 y"
b1111 ,#
b1100 G"
b1100 ["
b1100 ^"
b1100 h"
b1100 z"
b1100 |"
b1100 3#
b1100 5#
b11111111111111111111111111111010 b"
b11111111111111111111111111111010 u"
b11111111111111111111111111111010 :#
b10000 p
b10000 Q
b10000 g
b10000 u
b0 R
b0 e
b0 v
b11111111010111111111000001101111 )
b11111111010111111111000001101111 /
b11111111010111111111000001101111 7
b11111111010111111111000001101111 9
b11111111010111111111000001101111 I
b11111111010111111111000001101111 *"
b1100 (
b1100 .
b1100 8
b1100 G
b1100 J
b1100 T
b1100 f
b1100 h
b1100 }
b1100 !"
1J"
1E"
1#
#300000
b0 c"
b0 (#
b0 <#
b0 *#
b0 H"
b0 \"
b0 p"
b0 k"
b0 s"
b0 w"
b0 $#
b1100 f"
b1100 y"
b1100 ,#
b0 x"
b0 !#
b0 a"
b0 t"
b0 /#
b0 2#
b0 b"
b0 u"
b0 :#
b0 7#
b0 8#
b0 9#
b0 i"
b0 0#
b0 @#
b0 A#
0J"
0E"
0#
b10011 K"
b10011 M"
b10011 ]"
b10011 >#
#350000
b10000 "
b10000 $
b10000 *
b10000 0
b10000 3
b10000 H
b10000 \
b10000 W
b10000 _
b10000 c
b10000 n
b1 F
b1 ]
b1 b
b1 3"
b1 4"
b1 8"
06"
b0 A
b0 Z
b0 +"
b0 1"
b0 :"
b0 @"
1E
1>"
b0 =
b0 X
b0 s
b0 0"
b0 <"
b0 D"
b0 d
b0 k
b0 M
b0 `
b0 y
b0 |
b10100 g"
b10100 -#
b10100 4#
b10100 .#
b10000 O
b10000 r
b10000 ("
b10000 t
b0 S
b0 w
b0 ~
b0 x
b10000 N
b10000 a
b10000 &"
b0 #"
b10000 !
b10000 %
b10000 &
b10000 ,
b10000 2
b10000 <
b10000 L
b10000 P
b10000 {
b10000 '"
b0 $"
b101 %"
0B
b0 C
b0 [
b0 ."
b0 5"
b10011 ?
b10011 Y
b10011 /"
b10011 ;"
b0 U
b0 z
b0 ,"
b0 -"
b10100 &#
b10100 e"
b10100 {"
b10100 +#
b10000 f"
b10000 y"
b10000 ,#
b10000 G"
b10000 ["
b10000 ^"
b10000 h"
b10000 z"
b10000 |"
b10000 3#
b10000 5#
b100 p
b100 Q
b100 g
b100 u
b0 R
b0 e
b0 v
b1010010011 )
b1010010011 /
b1010010011 7
b1010010011 9
b1010010011 I
b1010010011 *"
b0 (
b0 .
b0 8
b0 G
b0 J
b0 T
b0 f
b0 h
b0 }
b0 !"
1J"
1E"
1#
#400000
b11111111111111111111111111111000 c"
b11111111111111111111111111111000 (#
b11111111111111111111111111111000 <#
b11111111111111111111111111111000 *#
b1111111111111000 H"
b1111111111111000 \"
b1111111111111000 p"
b11111111111111111111111111111000 k"
b11111111111111111111111111111000 s"
b11111111111111111111111111111000 w"
b11111111111111111111111111111000 $#
b10010 f"
b10010 y"
b10010 ,#
b10 x"
b10 !#
b10 a"
b10 t"
b10 /#
b10 2#
b11111111111111111111111111111010 b"
b11111111111111111111111111111010 u"
b11111111111111111111111111111010 :#
b1000 7#
b10 8#
b1000 9#
b10 i"
b10 0#
b10 @#
b10 A#
0J"
0E"
0#
b1001000000010000010011 K"
b1001000000010000010011 M"
b1001000000010000010011 ]"
b1001000000010000010011 >#
#450000
b1111111111110110 H"
b1111111111110110 \"
b1111111111110110 p"
b11111111111111111111111111110110 c"
b11111111111111111111111111110110 (#
b11111111111111111111111111110110 <#
b11111111111111111111111111110110 *#
b11000 g"
b11000 -#
b11000 4#
b11000 .#
b11111111111111111111111111110110 k"
b11111111111111111111111111110110 s"
b11111111111111111111111111110110 w"
b11111111111111111111111111110110 $#
b11000 &#
b11000 e"
b11000 {"
b11000 +#
b10110 f"
b10110 y"
b10110 ,#
b10100 G"
b10100 ["
b10100 ^"
b10100 h"
b10100 z"
b10100 |"
b10100 3#
b10100 5#
b11111111111111111111111111111000 b"
b11111111111111111111111111111000 u"
b11111111111111111111111111111000 :#
1J"
1E"
1#
#500000
b0 c"
b0 (#
b0 <#
b0 *#
b0 H"
b0 \"
b0 p"
b0 k"
b0 s"
b0 w"
b0 $#
b10100 f"
b10100 y"
b10100 ,#
b0 x"
b0 !#
b0 a"
b0 t"
b0 /#
b0 2#
b0 b"
b0 u"
b0 :#
b0 7#
b0 8#
b0 9#
b0 i"
b0 0#
b0 @#
b0 A#
0J"
0E"
0#
b10011 K"
b10011 M"
b10011 ]"
b10011 >#
#550000
b11100 g"
b11100 -#
b11100 4#
b11100 .#
b11100 &#
b11100 e"
b11100 {"
b11100 +#
b11000 f"
b11000 y"
b11000 ,#
b11000 G"
b11000 ["
b11000 ^"
b11000 h"
b11000 z"
b11000 |"
b11000 3#
b11000 5#
1J"
1E"
1#
#600000
b11111111111111111111111111111000 c"
b11111111111111111111111111111000 (#
b11111111111111111111111111111000 <#
b11111111111111111111111111111000 *#
b1111111111111000 H"
b1111111111111000 \"
b1111111111111000 p"
b11111111111111111111111111111000 k"
b11111111111111111111111111111000 s"
b11111111111111111111111111111000 w"
b11111111111111111111111111111000 $#
b11111111111111111111111111111000 b"
b11111111111111111111111111111000 u"
b11111111111111111111111111111000 :#
b1000 7#
b1000 9#
0J"
0E"
0#
b1000000010000010011 K"
b1000000010000010011 M"
b1000000010000010011 ]"
b1000000010000010011 >#
#650000
b100000 g"
b100000 -#
b100000 4#
b100000 .#
b100000 &#
b100000 e"
b100000 {"
b100000 +#
b11100 f"
b11100 y"
b11100 ,#
b11100 G"
b11100 ["
b11100 ^"
b11100 h"
b11100 z"
b11100 |"
b11100 3#
b11100 5#
1J"
1E"
1#
#700000
0J"
0E"
0#
#750000
b100100 g"
b100100 -#
b100100 4#
b100100 .#
b100100 &#
b100100 e"
b100100 {"
b100100 +#
b100000 f"
b100000 y"
b100000 ,#
b100000 G"
b100000 ["
b100000 ^"
b100000 h"
b100000 z"
b100000 |"
b100000 3#
b100000 5#
1J"
1E"
1#
#800000
0J"
0E"
0#
#850000
b101000 g"
b101000 -#
b101000 4#
b101000 .#
b101000 &#
b101000 e"
b101000 {"
b101000 +#
b100100 f"
b100100 y"
b100100 ,#
b100100 G"
b100100 ["
b100100 ^"
b100100 h"
b100100 z"
b100100 |"
b100100 3#
b100100 5#
1J"
1E"
1#
#900000
0J"
0E"
0#
#950000
b101100 g"
b101100 -#
b101100 4#
b101100 .#
b101100 &#
b101100 e"
b101100 {"
b101100 +#
b101000 f"
b101000 y"
b101000 ,#
b101000 G"
b101000 ["
b101000 ^"
b101000 h"
b101000 z"
b101000 |"
b101000 3#
b101000 5#
1J"
1E"
1#
