TPI/TPI-Codigo/Top_tb.vcd
$date
	Thu Nov 09 16:53:58 2023
$end
$version
	Icarus Verilog
$end
$timescale
	1ps
$end
$scope module Top_tb $end
$var wire 32 ! sal [31:0] $end
$var wire 16 " addressSal [15:0] $end
$var reg 1 # clk $end
$scope module UUT $end
$var wire 16 $ addressSal [15:0] $end
$var wire 1 # clk $end
$var wire 32 % sal [31:0] $end
$var wire 32 & s_writeData [31:0] $end
$var wire 32 ' s_readData [31:0] $end
$var wire 16 ( s_pc [15:0] $end
$var wire 32 ) s_instr [31:0] $end
$var wire 16 * s_address [15:0] $end
$var wire 1 + s_WE $end
$scope module Memory $end
$var wire 1 # clk $end
$var wire 32 , writeData [31:0] $end
$var wire 32 - readData [31:0] $end
$var wire 16 . pc [15:0] $end
$var wire 32 / instr [31:0] $end
$var wire 2 0 block_select [1:0] $end
$var wire 16 1 address_virtual [15:0] $end
$var wire 16 2 address_physical [15:0] $end
$var wire 1 + WE $end
$var wire 1 3 StackEnable $end
$var wire 1 4 MMIOEnable $end
$var wire 1 5 DataEnable $end
$scope module dataMem $end
$var wire 1 # clk $end
$var wire 32 6 rd [31:0] $end
$var wire 1 5 we $end
$var wire 32 7 wd [31:0] $end
$var wire 16 8 address [15:0] $end
$var integer 32 9 i [31:0] $end
$upscope $end
$scope module instrMem $end
$var wire 32 : instr [31:0] $end
$var wire 16 ; pc [15:0] $end
$upscope $end
$scope module memory_mapping $end
$var wire 16 < address_virtual [15:0] $end
$var reg 1 5 DataEnable $end
$var reg 1 4 MMIOEnable $end
$var reg 1 3 StackEnable $end
$var reg 16 = address_physical [15:0] $end
$var reg 2 > block_select [1:0] $end
$upscope $end
$upscope $end
$scope module RV $end
$var wire 1 # clk $end
$var wire 32 ? instr [31:0] $end
$var wire 32 @ readData [31:0] $end
$var wire 1 A s_jump $end
$var wire 1 B s_zero $end
$var wire 32 C writeData [31:0] $end
$var wire 2 D s_resSrc [1:0] $end
$var wire 1 E s_regWrite $end
$var wire 7 F s_op [6:0] $end
$var wire 2 G s_immSrc [1:0] $end
$var wire 1 H s_f7 $end
$var wire 3 I s_f3 [2:0] $end
$var wire 1 J s_branch $end
$var wire 1 K s_ALUSrc $end
$var wire 3 L s_ALUControl [2:0] $end
$var wire 16 M pc [15:0] $end
$var wire 16 N address [15:0] $end
$var wire 1 + WE $end
$scope module DataPath $end
$var wire 1 # clk $end
$var wire 32 O instr [31:0] $end
$var wire 1 A jump $end
$var wire 16 P pc [15:0] $end
$var wire 32 Q readData [31:0] $end
$var wire 32 R writeData [31:0] $end
$var wire 1 B zero $end
$var wire 32 S s_srcB [31:0] $end
$var wire 32 T s_srcA [31:0] $end
$var wire 32 U s_res [31:0] $end
$var wire 32 V s_rd2 [31:0] $end
$var wire 16 W s_pcNext [15:0] $end
$var wire 16 X s_pcJump [15:0] $end
$var wire 16 Y s_pcFinal [15:0] $end
$var wire 16 Z s_pc [15:0] $end
$var wire 32 [ s_immExt [31:0] $end
$var wire 16 \ s_addSrc [15:0] $end
$var wire 32 ] s_ALURes [31:0] $end
$var wire 2 ^ resSrc [1:0] $end
$var wire 1 E regWrite $end
$var wire 7 _ op [6:0] $end
$var wire 2 ` immSrc [1:0] $end
$var wire 1 H f7 $end
$var wire 3 a f3 [2:0] $end
$var wire 1 J branch $end
$var wire 16 b address [15:0] $end
$var wire 1 K ALUSrc $end
$var wire 3 c ALUControl [2:0] $end
$var reg 16 d cuatro [15:0] $end
$scope module ALU1 $end
$var wire 32 e res [31:0] $end
$var wire 1 B zero $end
$var wire 32 f srcB [31:0] $end
$var wire 32 g srcA [31:0] $end
$var wire 3 h ALUControl [2:0] $end
$var reg 32 i aux [31:0] $end
$upscope $end
$scope module AdderPCJump $end
$var wire 16 j op1 [15:0] $end
$var wire 16 k res [15:0] $end
$var wire 16 l op2 [15:0] $end
$upscope $end
$scope module AdderPCNext $end
$var wire 16 m res [15:0] $end
$var wire 16 n op2 [15:0] $end
$var wire 16 o op1 [15:0] $end
$upscope $end
$scope module MultBranch $end
$var wire 16 p e1 [15:0] $end
$var wire 16 q e2 [15:0] $end
$var wire 16 r sal [15:0] $end
$var wire 1 J sel $end
$var reg 16 s aux [15:0] $end
$upscope $end
$scope module MultData $end
$var wire 32 t e1 [31:0] $end
$var wire 32 u e2 [31:0] $end
$var wire 32 v e3 [31:0] $end
$var wire 32 w e4 [31:0] $end
$var wire 32 x sal [31:0] $end
$var wire 2 y sel [1:0] $end
$var reg 32 z aux [31:0] $end
$upscope $end
$scope module MultJump $end
$var wire 16 { e1 [15:0] $end
$var wire 16 | e2 [15:0] $end
$var wire 16 } sal [15:0] $end
$var wire 1 A sel $end
$var reg 16 ~ aux [15:0] $end
$upscope $end
$scope module MultSrcB $end
$var wire 32 !" sal [31:0] $end
$var wire 1 K sel $end
$var wire 32 "" e2 [31:0] $end
$var wire 32 #" e1 [31:0] $end
$var reg 32 $" aux [31:0] $end
$upscope $end
$scope module PCReg $end
$var wire 1 # clk $end
$var wire 16 %" pc [15:0] $end
$var wire 16 &" pcNext [15:0] $end
$var reg 16 '" count_reg [15:0] $end
$upscope $end
$scope module regBank $end
$var event 1 (" _ivl_18 $end
$var wire 5 )" a1 [4:0] $end
$var wire 5 *" a2 [4:0] $end
$var wire 5 +" a3 [4:0] $end
$var wire 1 # clk $end
$var wire 32 ," rd1 [31:0] $end
$var wire 32 -" rd2 [31:0] $end
$var wire 32 ." wd3 [31:0] $end
$var wire 1 E we $end
$var integer 32 /" i [31:0] $end
$upscope $end
$scope module sExt $end
$var wire 32 0" instr [31:0] $end
$var wire 2 1" src [1:0] $end
$var wire 32 2" immExt [31:0] $end
$var reg 32 3" immaux [31:0] $end
$upscope $end
$upscope $end
$scope module unitControl $end
$var wire 3 4" f3 [2:0] $end
$var wire 1 H f7 $end
$var wire 1 A jump $end
$var wire 7 5" op [6:0] $end
$var wire 1 B zero $end
$var wire 2 6" resSrc [1:0] $end
$var wire 1 E regWrite $end
$var wire 1 + memWrite $end
$var wire 2 7" immSrc [1:0] $end
$var wire 1 J branch $end
$var wire 1 K aluSrc $end
$var wire 2 8" ALUop [1:0] $end
$var wire 3 9" ALUcontrol [2:0] $end
$scope module ALUDecoder $end
$var wire 3 :" aluControl [2:0] $end
$var wire 3 ;" f3 [2:0] $end
$var wire 1 H f7 $end
$var wire 1 <" op $end
$var wire 2 =" aluOp [1:0] $end
$var reg 3 >" aluControlAux [2:0] $end
$upscope $end
$scope module MainDecoder $end
$var wire 2 ?" aluOp [1:0] $end
$var wire 1 K aluSrc $end
$var wire 1 J branch $end
$var wire 2 @" immSrc [1:0] $end
$var wire 1 A jump $end
$var wire 1 + memWrite $end
$var wire 7 A" op [6:0] $end
$var wire 1 E regWrite $end
$var wire 2 B" resSrc [1:0] $end
$var reg 2 C" aluOpAux [1:0] $end
$var reg 1 D" aluSrcAux $end
$var reg 1 E" branchAux $end
$var reg 2 F" immSrcAux [1:0] $end
$var reg 1 G" jumpAux $end
$var reg 1 H" memWriteAux $end
$var reg 1 I" regWriteAux $end
$var reg 2 J" resSrcAux [1:0] $end
$upscope $end
$upscope $end
$upscope $end
$upscope $end
$upscope $end
$scope module UART_tb $end
$var wire 1 K" rx_empty $end
$var wire 8 L" r_data [7:0] $end
$var wire 1 M" full $end
$var wire 1 N" Tx $end
$var reg 1 O" Rx $end
$var reg 3 P" address [2:0] $end
$var reg 1 Q" clk $end
$var reg 8 R" w_data [7:0] $end
$var reg 1 S" we $end
$scope module UUT $end
$var wire 1 O" Rx $end
$var wire 3 T" address [2:0] $end
$var wire 1 Q" clk $end
$var wire 1 K" rx_empty $end
$var wire 8 U" w_data [7:0] $end
$var wire 1 S" we $end
$var wire 1 V" s_tx_start $end
$var wire 1 W" s_tx_done_tick $end
$var wire 1 X" s_rx_done_tick $end
$var wire 8 Y" s_dout [7:0] $end
$var wire 8 Z" s_din [7:0] $end
$var wire 8 [" r_data [7:0] $end
$var wire 1 M" full $end
$var wire 1 N" Tx $end
$var wire 8 \" DEBUGbank4 [7:0] $end
$var wire 8 ]" DEBUGbank3 [7:0] $end
$var wire 8 ^" DEBUGbank2 [7:0] $end
$var wire 8 _" DEBUGbank1 [7:0] $end
$var wire 8 `" DEBUGbank0 [7:0] $end
$scope module rbuffer $end
$var wire 3 a" address [2:0] $end
$var wire 1 Q" clk $end
$var wire 1 M" full $end
$var wire 1 X" wr $end
$var wire 8 b" w_data [7:0] $end
$var reg 8 c" DEBUGbank0 [7:0] $end
$var reg 8 d" DEBUGbank1 [7:0] $end
$var reg 8 e" DEBUGbank2 [7:0] $end
$var reg 8 f" DEBUGbank3 [7:0] $end
$var reg 8 g" DEBUGbank4 [7:0] $end
$var reg 1 h" aux_full $end
$var reg 8 i" r_data [7:0] $end
$var reg 3 j" w_ptr [2:0] $end
$upscope $end
$scope module receiver $end
$var wire 1 O" Rx $end
$var wire 1 X" Rx_done_tick $end
$var wire 1 Q" clk $end
$var wire 8 k" dout [7:0] $end
$var reg 3 l" r_Bit_Index [2:0] $end
$var reg 8 m" r_Clock_Count [7:0] $end
$var reg 1 n" r_Rx_Data $end
$var reg 1 o" r_Rx_Data_R $end
$var reg 1 p" r_Rx_done_tick $end
$var reg 3 q" r_SM_Main [2:0] $end
$var reg 8 r" r_data_out [7:0] $end
$upscope $end
$scope module tbuffer $end
$var wire 3 s" address [2:0] $end
$var wire 1 Q" clk $end
$var wire 1 V" full $end
$var wire 8 t" w_data [7:0] $end
$var wire 1 S" wr $end
$var wire 1 W" rd $end
$var reg 1 u" aux_full $end
$var reg 3 v" count_w [2:0] $end
$var reg 8 w" r_data [7:0] $end
$var reg 3 x" r_ptr [2:0] $end
$upscope $end
$scope module transmitter $end
$var wire 1 Q" clk $end
$var wire 8 y" din [7:0] $end
$var wire 1 z" o_Tx_Active $end
$var wire 1 W" tx_done_tick $end
$var wire 1 V" tx_start $end
$var reg 1 N" Tx $end
$var reg 3 {" r_Bit_Index [2:0] $end
$var reg 8 |" r_Clock_Count [7:0] $end
$var reg 3 }" r_SM_Main [2:0] $end
$var reg 1 ~" r_Tx_Active $end
$var reg 8 !# r_Tx_Data [7:0] $end
$var reg 1 "# r_Tx_Done $end
$upscope $end
$upscope $end
$upscope $end
$enddefinitions $end
#0
$dumpvars
0"#
b0 !#
0~"
b0 }"
b0 |"
b0 {"
0z"
bx y"
b0 x"
bx w"
b0 v"
0u"
bx t"
bx s"
b0 r"
b0 q"
0p"
1o"
1n"
b0 m"
b0 l"
b0 k"
b0 j"
b0 i"
0h"
bx g"
bx f"
bx e"
bx d"
bx c"
b0 b"
bx a"
bx `"
bx _"
bx ^"
bx ]"
bx \"
b0 ["
bx Z"
b0 Y"
0X"
0W"
0V"
bx U"
bx T"
xS"
bx R"
0Q"
bx P"
xO"
xN"
0M"
b0 L"
zK"
b0 J"
1I"
0H"
0G"
b0 F"
0E"
1D"
b10 C"
b0 B"
b10011 A"
b0 @"
b10 ?"
b0 >"
b10 ="
0<"
b0 ;"
b0 :"
b0 9"
b10 8"
b0 7"
b0 6"
b10011 5"
b0 4"
b1100 3"
b1100 2"
b0 1"
b110000000000010100010011 0"
b100000 /"
b1100 ."
b0 -"
b0 ,"
b1010 +"
b1100 *"
b0 )"
1("
b0 '"
b100 &"
b0 %"
b1100 $"
b0 #"
b1100 ""
b1100 !"
b100 ~
b100 }
b1100 |
b100 {
b1100 z
b0 y
b1100 x
bz w
b100 v
bx u
b1100 t
b100 s
b100 r
b1100 q
b100 p
b100 o
b0 n
b100 m
b0 l
b1100 k
b1100 j
b1100 i
b0 h
b0 g
b1100 f
b1100 e
b100 d
b0 c
b1100 b
b0 a
b0 `
b10011 _
b0 ^
b1100 ]
b100 \
b1100 [
b0 Z
b100 Y
b1100 X
b100 W
b0 V
b1100 U
b0 T
b1100 S
b0 R
bx Q
b0 P
b110000000000010100010011 O
b1100 N
b0 M
b0 L
1K
0J
b0 I
0H
b0 G
b10011 F
1E
b0 D
b0 C
0B
0A
bx @
b110000000000010100010011 ?
b0 >
bx =
b1100 <
b0 ;
b110000000000010100010011 :
b100000 9
bx 8
b0 7
bx 6
05
04
03
bx 2
b1100 1
b0 0
b110000000000010100010011 /
b0 .
bx -
b0 ,
0+
b1100 *
b110000000000010100010011 )
b0 (
bx '
b0 &
b0 %
b1100 $
0#
b1100 "
b0 !
$end
#100
xo"
1N"
1Q"
#200
0Q"
#300
xn"
1Q"
#400
0Q"
#500
1Q"
#600
0Q"
#700
1Q"
#800
0Q"
#900
1Q"
#1000
b1001 U
b1001 x
b1001 ."
b1001 z
b1001 "
b1001 $
b1001 *
b1001 1
b1001 <
b1001 N
b1001 b
b1001 ]
b1001 e
b1001 i
b1001 t
b1001 j
b1001 q
b1001 S
b1001 f
b1001 !"
b1001 $"
b1000 Y
b1000 }
b1000 &"
b1000 ~
b1001 *"
b1011 +"
b1001 [
b1001 ""
b1001 2"
b1001 3"
b1000 v
b1000 W
b1000 m
b1000 {
b1101 X
b1101 k
b1101 |
b100100000000010110010011 )
b100100000000010110010011 /
b100100000000010110010011 :
b100100000000010110010011 ?
b100100000000010110010011 O
b100100000000010110010011 0"
b100 (
b100 .
b100 ;
b100 M
b100 P
b100 Z
b100 l
b100 n
b100 %"
b100 '"
0Q"
1#
#1100
1Q"
#1200
0Q"
#1300
1Q"
#1400
0Q"
#1500
1Q"
#1600
0Q"
#1700
1Q"
#1800
0Q"
#1900
1Q"
#2000
0Q"
0#
0O"
#2100
0o"
1Q"
#2200
0Q"
#2300
0n"
1Q"
#2400
0Q"
#2500
b1 q"
1Q"
#2600
0Q"
#2700
b1 m"
1Q"
#2800
0Q"
#2900
b10 m"
1Q"
#3000
b11 U
b11 x
b11 ."
b11 z
b11 "
b11 $
b11 *
b11 1
b11 <
b11 N
b11 b
b11 ]
b11 e
b11 i
b11 t
b1 L
b1 c
b1 h
b1 9"
b1 :"
b1 >"
1<"
0K
0D"
b10000001011 j
b10000001011 q
b1001 S
b1001 f
b1001 !"
b1001 $"
b1100 Y
b1100 }
b1100 &"
b1100 ~
b1100 T
b1100 g
b1100 ,"
b1010 )"
b1001 !
b1001 %
b1001 &
b1001 ,
b1001 7
b1001 C
b1001 R
b1001 V
b1001 #"
b1001 -"
b1011 *"
b1100 +"
1H
b110011 F
b110011 _
b110011 5"
b110011 A"
b10000001011 [
b10000001011 ""
b10000001011 2"
b10000001011 3"
b1100 v
b1100 W
b1100 m
b1100 {
b10000010011 X
b10000010011 k
b10000010011 |
b1000000101101010000011000110011 )
b1000000101101010000011000110011 /
b1000000101101010000011000110011 :
b1000000101101010000011000110011 ?
b1000000101101010000011000110011 O
b1000000101101010000011000110011 0"
b1000 (
b1000 .
b1000 ;
b1000 M
b1000 P
b1000 Z
b1000 l
b1000 n
b1000 %"
b1000 '"
0Q"
1#
#3100
b11 m"
1Q"
#3200
0Q"
#3300
b100 m"
1Q"
#3400
0Q"
#3500
b101 m"
1Q"
#3600
0Q"
#3700
b110 m"
1Q"
#3800
0Q"
#3900
b111 m"
1Q"
#4000
0Q"
0#
#4100
b1000 m"
1Q"
#4200
0Q"
#4300
b1001 m"
1Q"
#4400
0Q"
#4500
b1010 m"
1Q"
#4600
0Q"
#4700
b1011 m"
1Q"
#4800
0Q"
#4900
b1100 m"
1Q"
#5000
bx U
bx x
bx ."
bx z
bx "
bx $
bx *
bx 1
bx <
bx N
bx b
bx ]
bx e
bx i
bx t
x<"
bx j
bx q
bx S
bx f
bx !"
bx $"
b10000 Y
b10000 }
b10000 &"
b10000 ~
bx T
bx g
bx ,"
bx )"
bx !
bx %
bx &
bx ,
bx 7
bx C
bx R
bx V
bx #"
bx -"
bx *"
bx +"
xH
bx I
bx a
bx 4"
bx ;"
bx F
bx _
bx 5"
bx A"
bx [
bx ""
bx 2"
bx 3"
b10000 v
b10000 W
b10000 m
b10000 {
bx X
bx k
bx |
bx )
bx /
bx :
bx ?
bx O
bx 0"
b1100 (
b1100 .
b1100 ;
b1100 M
b1100 P
b1100 Z
b1100 l
b1100 n
b1100 %"
b1100 '"
0Q"
1#
#5100
b1101 m"
1Q"
#5200
0Q"
#5300
b1110 m"
1Q"
#5400
0Q"
#5500
b1111 m"
1Q"
#5600
0Q"
#5700
b10000 m"
1Q"
#5800
0Q"
#5900
b10001 m"
1Q"
#6000
0Q"
0#
#6100
b10010 m"
1Q"
#6200
0Q"
#6300
b10011 m"
1Q"
#6400
0Q"
#6500
b10 q"
b0 m"
1Q"
#6600
0Q"
#6700
b1 m"
1Q"
#6800
0Q"
#6900
b10 m"
1Q"
#7000
b10100 Y
b10100 }
b10100 &"
b10100 ~
b10100 v
b10100 W
b10100 m
b10100 {
b10000 (
b10000 .
b10000 ;
b10000 M
b10000 P
b10000 Z
b10000 l
b10000 n
b10000 %"
b10000 '"
0Q"
1#
#7100
b11 m"
1Q"
#7200
0Q"
#7300
b100 m"
1Q"
#7400
0Q"
#7500
b101 m"
1Q"
#7600
0Q"
#7700
b110 m"
1Q"
#7800
0Q"
#7900
b111 m"
1Q"
#8000
0Q"
0#
#8100
b1000 m"
1Q"
#8200
0Q"
#8300
b1001 m"
1Q"
#8400
0Q"
#8500
b1010 m"
1Q"
#8600
0Q"
#8700
b1011 m"
1Q"
#8800
0Q"
#8900
b1100 m"
1Q"
#9000
b11000 Y
b11000 }
b11000 &"
b11000 ~
b11000 v
b11000 W
b11000 m
b11000 {
b10100 (
b10100 .
b10100 ;
b10100 M
b10100 P
b10100 Z
b10100 l
b10100 n
b10100 %"
b10100 '"
0Q"
1#
#9100
b1101 m"
1Q"
#9200
0Q"
#9300
b1110 m"
1Q"
#9400
0Q"
#9500
b1111 m"
1Q"
#9600
0Q"
#9700
b10000 m"
1Q"
#9800
0Q"
#9900
b10001 m"
1Q"
#10000
0Q"
0#
#10100
b10010 m"
1Q"
#10200
0Q"
#10300
b10011 m"
1Q"
#10400
0Q"
#10500
b10100 m"
1Q"
#10600
0Q"
#10700
b10101 m"
1Q"
#10800
0Q"
#10900
b10110 m"
1Q"
#11000
b11100 Y
b11100 }
b11100 &"
b11100 ~
b11100 v
b11100 W
b11100 m
b11100 {
b11000 (
b11000 .
b11000 ;
b11000 M
b11000 P
b11000 Z
b11000 l
b11000 n
b11000 %"
b11000 '"
0Q"
1#
#11100
b10111 m"
1Q"
#11200
0Q"
#11300
b11000 m"
1Q"
#11400
0Q"
#11500
b11001 m"
1Q"
#11600
0Q"
#11700
b11010 m"
1Q"
#11800
0Q"
#11900
b11011 m"
1Q"
#12000
0Q"
0#
#12100
b11100 m"
1Q"
#12200
0Q"
#12300
b11101 m"
1Q"
#12400
0Q"
#12500
b11110 m"
1Q"
#12600
0Q"
#12700
b11111 m"
1Q"
#12800
0Q"
#12900
b100000 m"
1Q"
#13000
b100000 Y
b100000 }
b100000 &"
b100000 ~
b100000 v
b100000 W
b100000 m
b100000 {
b11100 (
b11100 .
b11100 ;
b11100 M
b11100 P
b11100 Z
b11100 l
b11100 n
b11100 %"
b11100 '"
0Q"
1#
#13100
b100001 m"
1Q"
#13200
0Q"
#13300
b100010 m"
1Q"
#13400
0Q"
#13500
b100011 m"
1Q"
#13600
0Q"
#13700
b100100 m"
1Q"
#13800
0Q"
#13900
b100101 m"
1Q"
#14000
0Q"
0#
#14100
b100110 m"
1Q"
#14200
0Q"
#14300
b100111 m"
1Q"
#14400
0Q"
#14500
b1 l"
b0 m"
1Q"
#14600
0Q"
#14700
b1 m"
1Q"
#14800
0Q"
#14900
b10 m"
1Q"
#15000
b100100 Y
b100100 }
b100100 &"
b100100 ~
b100100 v
b100100 W
b100100 m
b100100 {
b100000 (
b100000 .
b100000 ;
b100000 M
b100000 P
b100000 Z
b100000 l
b100000 n
b100000 %"
b100000 '"
0Q"
1#
#15100
b11 m"
1Q"
#15200
0Q"
#15300
b100 m"
1Q"
#15400
0Q"
#15500
b101 m"
1Q"
#15600
0Q"
#15700
b110 m"
1Q"
#15800
0Q"
#15900
b111 m"
1Q"
#16000
0Q"
0#
#16100
b1000 m"
1Q"
#16200
0Q"
#16300
b1001 m"
1Q"
#16400
0Q"
#16500
b1010 m"
1Q"
#16600
0Q"
#16700
b1011 m"
1Q"
#16800
0Q"
#16900
b1100 m"
1Q"
#17000
b101000 Y
b101000 }
b101000 &"
b101000 ~
b101000 v
b101000 W
b101000 m
b101000 {
b100100 (
b100100 .
b100100 ;
b100100 M
b100100 P
b100100 Z
b100100 l
b100100 n
b100100 %"
b100100 '"
0Q"
1#
#17100
b1101 m"
1Q"
#17200
0Q"
#17300
b1110 m"
1Q"
#17400
0Q"
#17500
b1111 m"
1Q"
#17600
0Q"
#17700
b10000 m"
1Q"
#17800
0Q"
#17900
b10001 m"
1Q"
#18000
0Q"
0#
#18100
b10010 m"
1Q"
#18200
0Q"
#18300
b10011 m"
1Q"
#18400
0Q"
#18500
b10100 m"
1Q"
#18600
0Q"
#18700
b10101 m"
1Q"
#18800
0Q"
#18900
b10110 m"
1Q"
#19000
b101100 Y
b101100 }
b101100 &"
b101100 ~
b101100 v
b101100 W
b101100 m
b101100 {
b101000 (
b101000 .
b101000 ;
b101000 M
b101000 P
b101000 Z
b101000 l
b101000 n
b101000 %"
b101000 '"
0Q"
1#
#19100
b10111 m"
1Q"
#19200
0Q"
#19300
b11000 m"
1Q"
#19400
0Q"
#19500
b11001 m"
1Q"
#19600
0Q"
#19700
b11010 m"
1Q"
#19800
0Q"
#19900
b11011 m"
1Q"
#20000
0Q"
0#
#20100
b11100 m"
1Q"
#20200
0Q"
#20300
b11101 m"
1Q"
#20400
0Q"
#20500
b11110 m"
1Q"
#20600
0Q"
#20700
b11111 m"
1Q"
#20800
0Q"
#20900
b100000 m"
1Q"
#21000
b110000 Y
b110000 }
b110000 &"
b110000 ~
b110000 v
b110000 W
b110000 m
b110000 {
b101100 (
b101100 .
b101100 ;
b101100 M
b101100 P
b101100 Z
b101100 l
b101100 n
b101100 %"
b101100 '"
0Q"
1#
#21100
b100001 m"
1Q"
#21200
0Q"
#21300
b100010 m"
1Q"
#21400
0Q"
#21500
b100011 m"
1Q"
#21600
0Q"
#21700
b100100 m"
1Q"
#21800
0Q"
#21900
b100101 m"
1Q"
#22000
0Q"
0#
#22100
b100110 m"
1Q"
#22200
0Q"
#22300
b100111 m"
1Q"
#22400
0Q"
#22500
b10 l"
b0 m"
1Q"
#22600
0Q"
#22700
b1 m"
1Q"
#22800
0Q"
#22900
b10 m"
1Q"
#23000
b110100 Y
b110100 }
b110100 &"
b110100 ~
b110100 v
b110100 W
b110100 m
b110100 {
b110000 (
b110000 .
b110000 ;
b110000 M
b110000 P
b110000 Z
b110000 l
b110000 n
b110000 %"
b110000 '"
0Q"
1#
#23100
b11 m"
1Q"
#23200
0Q"
#23300
b100 m"
1Q"
#23400
0Q"
#23500
b101 m"
1Q"
#23600
0Q"
#23700
b110 m"
1Q"
#23800
0Q"
#23900
b111 m"
1Q"
#24000
0Q"
0#
#24100
b1000 m"
1Q"
#24200
0Q"
#24300
b1001 m"
1Q"
#24400
0Q"
#24500
b1010 m"
1Q"
#24600
0Q"
#24700
b1011 m"
1Q"
#24800
0Q"
#24900
b1100 m"
1Q"
#25000
b111000 Y
b111000 }
b111000 &"
b111000 ~
b111000 v
b111000 W
b111000 m
b111000 {
b110100 (
b110100 .
b110100 ;
b110100 M
b110100 P
b110100 Z
b110100 l
b110100 n
b110100 %"
b110100 '"
0Q"
1#
#25100
b1101 m"
1Q"
#25200
0Q"
#25300
b1110 m"
1Q"
#25400
0Q"
#25500
b1111 m"
1Q"
#25600
0Q"
#25700
b10000 m"
1Q"
#25800
0Q"
#25900
b10001 m"
1Q"
#26000
0Q"
0#
#26100
b10010 m"
1Q"
#26200
0Q"
#26300
b10011 m"
1Q"
#26400
0Q"
#26500
b10100 m"
1Q"
#26600
0Q"
#26700
b10101 m"
1Q"
#26800
0Q"
#26900
b10110 m"
1Q"
#27000
b111100 Y
b111100 }
b111100 &"
b111100 ~
b111100 v
b111100 W
b111100 m
b111100 {
b111000 (
b111000 .
b111000 ;
b111000 M
b111000 P
b111000 Z
b111000 l
b111000 n
b111000 %"
b111000 '"
0Q"
1#
#27100
b10111 m"
1Q"
#27200
0Q"
#27300
b11000 m"
1Q"
#27400
0Q"
#27500
b11001 m"
1Q"
#27600
0Q"
#27700
b11010 m"
1Q"
#27800
0Q"
#27900
b11011 m"
1Q"
#28000
0Q"
0#
#28100
b11100 m"
1Q"
#28200
0Q"
#28300
b11101 m"
1Q"
#28400
0Q"
#28500
b11110 m"
1Q"
#28600
0Q"
#28700
b11111 m"
1Q"
#28800
0Q"
#28900
b100000 m"
1Q"
#29000
b1000000 Y
b1000000 }
b1000000 &"
b1000000 ~
b1000000 v
b1000000 W
b1000000 m
b1000000 {
b111100 (
b111100 .
b111100 ;
b111100 M
b111100 P
b111100 Z
b111100 l
b111100 n
b111100 %"
b111100 '"
0Q"
1#
#29100
b100001 m"
1Q"
#29200
0Q"
#29300
b100010 m"
1Q"
#29400
0Q"
#29500
b100011 m"
1Q"
#29600
0Q"
#29700
b100100 m"
1Q"
#29800
0Q"
#29900
b100101 m"
1Q"
#30000
0Q"
0#
#30100
b100110 m"
1Q"
#30200
0Q"
#30300
b100111 m"
1Q"
#30400
0Q"
#30500
b11 l"
b0 m"
1Q"
#30600
0Q"
#30700
b1 m"
1Q"
#30800
0Q"
#30900
b10 m"
1Q"
#31000
b1000100 Y
b1000100 }
b1000100 &"
b1000100 ~
b1000100 v
b1000100 W
b1000100 m
b1000100 {
b1000000 (
b1000000 .
b1000000 ;
b1000000 M
b1000000 P
b1000000 Z
b1000000 l
b1000000 n
b1000000 %"
b1000000 '"
0Q"
1#
#31100
b11 m"
1Q"
#31200
0Q"
#31300
b100 m"
1Q"
#31400
0Q"
#31500
b101 m"
1Q"
#31600
0Q"
#31700
b110 m"
1Q"
#31800
0Q"
#31900
b111 m"
1Q"
#32000
0Q"
0#
#32100
b1000 m"
1Q"
#32200
0Q"
#32300
b1001 m"
1Q"
#32400
0Q"
#32500
b1010 m"
1Q"
#32600
0Q"
#32700
b1011 m"
1Q"
#32800
0Q"
#32900
b1100 m"
1Q"
#33000
b1001000 Y
b1001000 }
b1001000 &"
b1001000 ~
b1001000 v
b1001000 W
b1001000 m
b1001000 {
b1000100 (
b1000100 .
b1000100 ;
b1000100 M
b1000100 P
b1000100 Z
b1000100 l
b1000100 n
b1000100 %"
b1000100 '"
0Q"
1#
#33100
b1101 m"
1Q"
#33200
0Q"
#33300
b1110 m"
1Q"
#33400
0Q"
#33500
b1111 m"
1Q"
#33600
0Q"
#33700
b10000 m"
1Q"
#33800
0Q"
#33900
b10001 m"
1Q"
#34000
0Q"
0#
1O"
#34100
1o"
b10010 m"
1Q"
#34200
0Q"
#34300
b10011 m"
1n"
1Q"
#34400
0Q"
#34500
b10100 m"
1Q"
#34600
0Q"
#34700
b10101 m"
1Q"
#34800
0Q"
#34900
b10110 m"
1Q"
#35000
b1001100 Y
b1001100 }
b1001100 &"
b1001100 ~
b1001100 v
b1001100 W
b1001100 m
b1001100 {
b1001000 (
b1001000 .
b1001000 ;
b1001000 M
b1001000 P
b1001000 Z
b1001000 l
b1001000 n
b1001000 %"
b1001000 '"
0Q"
1#
#35100
b10111 m"
1Q"
#35200
0Q"
#35300
b11000 m"
1Q"
#35400
0Q"
#35500
b11001 m"
1Q"
#35600
0Q"
#35700
b11010 m"
1Q"
#35800
0Q"
#35900
b11011 m"
1Q"
#36000
0Q"
0#
#36100
b11100 m"
1Q"
#36200
0Q"
#36300
b11101 m"
1Q"
#36400
0Q"
#36500
b11110 m"
1Q"
#36600
0Q"
#36700
b11111 m"
1Q"
#36800
0Q"
#36900
b100000 m"
1Q"
#37000
b1010000 Y
b1010000 }
b1010000 &"
b1010000 ~
b1010000 v
b1010000 W
b1010000 m
b1010000 {
b1001100 (
b1001100 .
b1001100 ;
b1001100 M
b1001100 P
b1001100 Z
b1001100 l
b1001100 n
b1001100 %"
b1001100 '"
0Q"
1#
#37100
b100001 m"
1Q"
#37200
0Q"
#37300
b100010 m"
1Q"
#37400
0Q"
#37500
b100011 m"
1Q"
#37600
0Q"
#37700
b100100 m"
1Q"
#37800
0Q"
#37900
b100101 m"
1Q"
#38000
0Q"
0#
#38100
b100110 m"
1Q"
#38200
0Q"
#38300
b100111 m"
1Q"
#38400
0Q"
#38500
b100 l"
b1000 Y"
b1000 b"
b1000 k"
b1000 r"
b0 m"
1Q"
#38600
0Q"
#38700
b1 m"
1Q"
#38800
0Q"
#38900
b10 m"
1Q"
#39000
b1010100 Y
b1010100 }
b1010100 &"
b1010100 ~
b1010100 v
b1010100 W
b1010100 m
b1010100 {
b1010000 (
b1010000 .
b1010000 ;
b1010000 M
b1010000 P
b1010000 Z
b1010000 l
b1010000 n
b1010000 %"
b1010000 '"
0Q"
1#
#39100
b11 m"
1Q"
#39200
0Q"
#39300
b100 m"
1Q"
#39400
0Q"
#39500
b101 m"
1Q"
#39600
0Q"
#39700
b110 m"
1Q"
#39800
0Q"
#39900
b111 m"
1Q"
#40000
0Q"
0#
#40100
b1000 m"
1Q"
#40200
0Q"
#40300
b1001 m"
1Q"
#40400
0Q"
#40500
b1010 m"
1Q"
#40600
0Q"
#40700
b1011 m"
1Q"
#40800
0Q"
#40900
b1100 m"
1Q"
#41000
b1011000 Y
b1011000 }
b1011000 &"
b1011000 ~
b1011000 v
b1011000 W
b1011000 m
b1011000 {
b1010100 (
b1010100 .
b1010100 ;
b1010100 M
b1010100 P
b1010100 Z
b1010100 l
b1010100 n
b1010100 %"
b1010100 '"
0Q"
1#
#41100
b1101 m"
1Q"
#41200
0Q"
#41300
b1110 m"
1Q"
#41400
0Q"
#41500
b1111 m"
1Q"
