TPI/TPI-Codigo/Top_tb.vcd
$date
	Tue Nov 07 01:13:14 2023
$end
$version
	Icarus Verilog
$end
$timescale
	1ps
$end
$scope module Top_tb $end
$var wire 32 ! sal [31:0] $end
$var wire 16 " addressSal [15:0] $end
$var reg 1 # clk $end
$scope module UUT $end
$var wire 16 $ addressSal [15:0] $end
$var wire 1 # clk $end
$var wire 32 % sal [31:0] $end
$var wire 32 & s_writeData [31:0] $end
$var wire 32 ' s_readData [31:0] $end
$var wire 16 ( s_pc [15:0] $end
$var wire 32 ) s_instr [31:0] $end
$var wire 16 * s_address [15:0] $end
$var wire 1 + s_WE $end
$scope module Memory $end
$var wire 1 # clk $end
$var wire 32 , writeData [31:0] $end
$var wire 32 - readData [31:0] $end
$var wire 16 . pc [15:0] $end
$var wire 32 / instr [31:0] $end
$var wire 16 0 address [15:0] $end
$var wire 1 + WE $end
$scope module dataMem $end
$var wire 1 # clk $end
$var wire 32 1 rd [31:0] $end
$var wire 1 + we $end
$var wire 32 2 wd [31:0] $end
$var wire 16 3 address [15:0] $end
$var integer 32 4 i [31:0] $end
$upscope $end
$scope module instrMem $end
$var wire 32 5 instr [31:0] $end
$var wire 16 6 pc [15:0] $end
$upscope $end
$upscope $end
$scope module RV $end
$var wire 1 # clk $end
$var wire 32 7 instr [31:0] $end
$var wire 32 8 readData [31:0] $end
$var wire 1 9 s_jump $end
$var wire 1 : s_zero $end
$var wire 32 ; writeData [31:0] $end
$var wire 2 < s_resSrc [1:0] $end
$var wire 1 = s_regWrite $end
$var wire 7 > s_op [6:0] $end
$var wire 2 ? s_immSrc [1:0] $end
$var wire 1 @ s_f7 $end
$var wire 3 A s_f3 [2:0] $end
$var wire 1 B s_branch $end
$var wire 1 C s_ALUSrc $end
$var wire 3 D s_ALUControl [2:0] $end
$var wire 16 E pc [15:0] $end
$var wire 16 F address [15:0] $end
$var wire 1 + WE $end
$scope module DataPath $end
$var wire 1 # clk $end
$var wire 32 G instr [31:0] $end
$var wire 1 9 jump $end
$var wire 16 H pc [15:0] $end
$var wire 32 I readData [31:0] $end
$var wire 32 J writeData [31:0] $end
$var wire 1 : zero $end
$var wire 32 K s_srcB [31:0] $end
$var wire 32 L s_srcA [31:0] $end
$var wire 32 M s_res [31:0] $end
$var wire 32 N s_rd2 [31:0] $end
$var wire 16 O s_pcNext [15:0] $end
$var wire 16 P s_pcJump [15:0] $end
$var wire 16 Q s_pcFinal [15:0] $end
$var wire 16 R s_pc [15:0] $end
$var wire 32 S s_immExt [31:0] $end
$var wire 16 T s_addSrc [15:0] $end
$var wire 32 U s_ALURes [31:0] $end
$var wire 2 V resSrc [1:0] $end
$var wire 1 = regWrite $end
$var wire 7 W op [6:0] $end
$var wire 2 X immSrc [1:0] $end
$var wire 1 @ f7 $end
$var wire 3 Y f3 [2:0] $end
$var wire 1 B branch $end
$var wire 16 Z address [15:0] $end
$var wire 1 C ALUSrc $end
$var wire 3 [ ALUControl [2:0] $end
$var reg 16 \ cuatro [15:0] $end
$scope module ALU1 $end
$var wire 32 ] res [31:0] $end
$var wire 1 : zero $end
$var wire 32 ^ srcB [31:0] $end
$var wire 32 _ srcA [31:0] $end
$var wire 3 ` ALUControl [2:0] $end
$var reg 32 a aux [31:0] $end
$upscope $end
$scope module AdderPCJump $end
$var wire 16 b op1 [15:0] $end
$var wire 16 c res [15:0] $end
$var wire 16 d op2 [15:0] $end
$upscope $end
$scope module AdderPCNext $end
$var wire 16 e res [15:0] $end
$var wire 16 f op2 [15:0] $end
$var wire 16 g op1 [15:0] $end
$upscope $end
$scope module MultBranch $end
$var wire 16 h e1 [15:0] $end
$var wire 16 i e2 [15:0] $end
$var wire 16 j sal [15:0] $end
$var wire 1 B sel $end
$var reg 16 k aux [15:0] $end
$upscope $end
$scope module MultData $end
$var wire 32 l e1 [31:0] $end
$var wire 32 m e2 [31:0] $end
$var wire 32 n e3 [31:0] $end
$var wire 32 o e4 [31:0] $end
$var wire 32 p sal [31:0] $end
$var wire 2 q sel [1:0] $end
$var reg 32 r aux [31:0] $end
$upscope $end
$scope module MultJump $end
$var wire 16 s e1 [15:0] $end
$var wire 16 t e2 [15:0] $end
$var wire 16 u sal [15:0] $end
$var wire 1 9 sel $end
$var reg 16 v aux [15:0] $end
$upscope $end
$scope module MultSrcB $end
$var wire 32 w sal [31:0] $end
$var wire 1 C sel $end
$var wire 32 x e2 [31:0] $end
$var wire 32 y e1 [31:0] $end
$var reg 32 z aux [31:0] $end
$upscope $end
$scope module PCReg $end
$var wire 1 # clk $end
$var wire 16 { pc [15:0] $end
$var wire 16 | pcNext [15:0] $end
$var reg 16 } count_reg [15:0] $end
$upscope $end
$scope module regBank $end
$var event 1 ~ _ivl_18 $end
$var wire 5 !" a1 [4:0] $end
$var wire 5 "" a2 [4:0] $end
$var wire 5 #" a3 [4:0] $end
$var wire 1 # clk $end
$var wire 32 $" rd1 [31:0] $end
$var wire 32 %" rd2 [31:0] $end
$var wire 32 &" wd3 [31:0] $end
$var wire 1 = we $end
$var integer 32 '" i [31:0] $end
$upscope $end
$scope module sExt $end
$var wire 32 (" instr [31:0] $end
$var wire 2 )" src [1:0] $end
$var wire 32 *" immExt [31:0] $end
$var reg 32 +" immaux [31:0] $end
$upscope $end
$upscope $end
$scope module unitControl $end
$var wire 2 ," ALUop [1:0] $end
$var wire 3 -" f3 [2:0] $end
$var wire 1 @ f7 $end
$var wire 1 9 jump $end
$var wire 7 ." op [6:0] $end
$var wire 1 : zero $end
$var wire 2 /" resSrc [1:0] $end
$var wire 1 = regWrite $end
$var wire 1 + memWrite $end
$var wire 2 0" immSrc [1:0] $end
$var wire 1 B branch $end
$var wire 1 C aluSrc $end
$var wire 3 1" ALUcontrol [2:0] $end
$scope module ALUDecoder $end
$var wire 3 2" aluControl [2:0] $end
$var wire 2 3" aluOp [1:0] $end
$var wire 3 4" f3 [2:0] $end
$var wire 1 @ f7 $end
$var wire 1 5" op $end
$var reg 3 6" aluControlAux [2:0] $end
$upscope $end
$scope module MainDecoder $end
$var wire 2 7" aluOp [1:0] $end
$var wire 1 C aluSrc $end
$var wire 1 B branch $end
$var wire 2 8" immSrc [1:0] $end
$var wire 1 9 jump $end
$var wire 1 + memWrite $end
$var wire 7 9" op [6:0] $end
$var wire 1 = regWrite $end
$var wire 2 :" resSrc [1:0] $end
$var reg 2 ;" aluOpAux [1:0] $end
$var reg 1 <" aluSrcAux $end
$var reg 1 =" branchAux $end
$var reg 2 >" immSrcAux [1:0] $end
$var reg 1 ?" jumpAux $end
$var reg 1 @" memWriteAux $end
$var reg 1 A" regWriteAux $end
$var reg 2 B" resSrcAux [1:0] $end
$upscope $end
$upscope $end
$upscope $end
$upscope $end
$upscope $end
$scope module UART_tb $end
$var wire 1 C" rx_empty $end
$var wire 8 D" r_data [7:0] $end
$var wire 1 E" Tx $end
$var reg 1 F" Rx $end
$var reg 1 G" clk $end
$var reg 1 H" rd_uart $end
$var reg 8 I" w_data [7:0] $end
$var reg 1 J" wr_uart $end
$scope module UUT $end
$var wire 1 F" Rx $end
$var wire 1 G" clk $end
$var wire 1 H" rd_uart $end
$var wire 1 C" rx_empty $end
$var wire 1 K" s_tx_empty $end
$var wire 1 L" s_tx_start $end
$var wire 8 M" w_data [7:0] $end
$var wire 1 J" wr_uart $end
$var wire 1 N" s_tx_done_tick $end
$var wire 1 O" s_rx_done_tick $end
$var wire 8 P" s_dout [7:0] $end
$var wire 8 Q" s_din [7:0] $end
$var wire 8 R" r_data [7:0] $end
$var wire 1 E" Tx $end
$var reg 1 S" r_tx_start $end
$scope module fifoR $end
$var wire 1 C" empty $end
$var wire 8 T" r_data [7:0] $end
$var wire 1 H" rd $end
$var wire 1 O" wr $end
$var wire 8 U" w_data [7:0] $end
$var reg 8 V" aux [7:0] $end
$var reg 8 W" data [7:0] $end
$upscope $end
$scope module fifoT $end
$var wire 1 K" empty $end
$var wire 8 X" r_data [7:0] $end
$var wire 8 Y" w_data [7:0] $end
$var wire 1 J" wr $end
$var wire 1 N" rd $end
$var reg 8 Z" aux [7:0] $end
$var reg 8 [" data [7:0] $end
$upscope $end
$scope module receiver $end
$var wire 1 F" Rx $end
$var wire 1 O" Rx_done_tick $end
$var wire 1 G" clk $end
$var wire 8 \" dout [7:0] $end
$var reg 3 ]" r_Bit_Index [2:0] $end
$var reg 8 ^" r_Clock_Count [7:0] $end
$var reg 1 _" r_Rx_Data $end
$var reg 1 `" r_Rx_Data_R $end
$var reg 1 a" r_Rx_done_tick $end
$var reg 3 b" r_SM_Main [2:0] $end
$var reg 8 c" r_data_out [7:0] $end
$upscope $end
$scope module transmitter $end
$var wire 1 d" clk $end
$var wire 8 e" din [7:0] $end
$var wire 1 f" o_Tx_Active $end
$var wire 1 N" tx_done_tick $end
$var wire 1 L" tx_start $end
$var reg 1 E" Tx $end
$var reg 3 g" r_Bit_Index [2:0] $end
$var reg 8 h" r_Clock_Count [7:0] $end
$var reg 3 i" r_SM_Main [2:0] $end
$var reg 1 j" r_Tx_Active $end
$var reg 8 k" r_Tx_Data [7:0] $end
$var reg 1 l" r_Tx_Done $end
$upscope $end
$upscope $end
$upscope $end
$scope module dataPath_tb $end
$var reg 1 m" clk $end
$upscope $end
$scope module rv32i_tb $end
$var wire 32 n" writeData [31:0] $end
$var wire 16 o" pc [15:0] $end
$var wire 16 p" address [15:0] $end
$var wire 1 q" WE $end
$var reg 1 r" clk $end
$var reg 32 s" instr [31:0] $end
$var reg 32 t" readData [31:0] $end
$scope module UUT $end
$var wire 1 r" clk $end
$var wire 32 u" instr [31:0] $end
$var wire 32 v" readData [31:0] $end
$var wire 1 w" s_jump $end
$var wire 1 x" s_zero $end
$var wire 32 y" writeData [31:0] $end
$var wire 2 z" s_resSrc [1:0] $end
$var wire 1 {" s_regWrite $end
$var wire 7 |" s_op [6:0] $end
$var wire 2 }" s_immSrc [1:0] $end
$var wire 1 ~" s_f7 $end
$var wire 3 !# s_f3 [2:0] $end
$var wire 1 "# s_branch $end
$var wire 1 ## s_ALUSrc $end
$var wire 3 $# s_ALUControl [2:0] $end
$var wire 16 %# pc [15:0] $end
$var wire 16 &# address [15:0] $end
$var wire 1 q" WE $end
$scope module DataPath $end
$var wire 1 r" clk $end
$var wire 32 '# instr [31:0] $end
$var wire 1 w" jump $end
$var wire 16 (# pc [15:0] $end
$var wire 32 )# readData [31:0] $end
$var wire 32 *# writeData [31:0] $end
$var wire 1 x" zero $end
$var wire 32 +# s_srcB [31:0] $end
$var wire 32 ,# s_srcA [31:0] $end
$var wire 32 -# s_res [31:0] $end
$var wire 32 .# s_rd2 [31:0] $end
$var wire 16 /# s_pcNext [15:0] $end
$var wire 16 0# s_pcJump [15:0] $end
$var wire 16 1# s_pcFinal [15:0] $end
$var wire 16 2# s_pc [15:0] $end
$var wire 32 3# s_immExt [31:0] $end
$var wire 16 4# s_addSrc [15:0] $end
$var wire 32 5# s_ALURes [31:0] $end
$var wire 2 6# resSrc [1:0] $end
$var wire 1 {" regWrite $end
$var wire 7 7# op [6:0] $end
$var wire 2 8# immSrc [1:0] $end
$var wire 1 ~" f7 $end
$var wire 3 9# f3 [2:0] $end
$var wire 1 "# branch $end
$var wire 16 :# address [15:0] $end
$var wire 1 ## ALUSrc $end
$var wire 3 ;# ALUControl [2:0] $end
$var reg 16 <# cuatro [15:0] $end
$scope module ALU1 $end
$var wire 32 =# res [31:0] $end
$var wire 1 x" zero $end
$var wire 32 ># srcB [31:0] $end
$var wire 32 ?# srcA [31:0] $end
$var wire 3 @# ALUControl [2:0] $end
$var reg 32 A# aux [31:0] $end
$upscope $end
$scope module AdderPCJump $end
$var wire 16 B# op1 [15:0] $end
$var wire 16 C# res [15:0] $end
$var wire 16 D# op2 [15:0] $end
$upscope $end
$scope module AdderPCNext $end
$var wire 16 E# res [15:0] $end
$var wire 16 F# op2 [15:0] $end
$var wire 16 G# op1 [15:0] $end
$upscope $end
$scope module MultBranch $end
$var wire 16 H# e1 [15:0] $end
$var wire 16 I# e2 [15:0] $end
$var wire 16 J# sal [15:0] $end
$var wire 1 "# sel $end
$var reg 16 K# aux [15:0] $end
$upscope $end
$scope module MultData $end
$var wire 32 L# e1 [31:0] $end
$var wire 32 M# e2 [31:0] $end
$var wire 32 N# e3 [31:0] $end
$var wire 32 O# e4 [31:0] $end
$var wire 32 P# sal [31:0] $end
$var wire 2 Q# sel [1:0] $end
$var reg 32 R# aux [31:0] $end
$upscope $end
$scope module MultJump $end
$var wire 16 S# e1 [15:0] $end
$var wire 16 T# e2 [15:0] $end
$var wire 16 U# sal [15:0] $end
$var wire 1 w" sel $end
$var reg 16 V# aux [15:0] $end
$upscope $end
$scope module MultSrcB $end
$var wire 32 W# sal [31:0] $end
$var wire 1 ## sel $end
$var wire 32 X# e2 [31:0] $end
$var wire 32 Y# e1 [31:0] $end
$var reg 32 Z# aux [31:0] $end
$upscope $end
$scope module PCReg $end
$var wire 1 r" clk $end
$var wire 16 [# pc [15:0] $end
$var wire 16 \# pcNext [15:0] $end
$var reg 16 ]# count_reg [15:0] $end
$upscope $end
$scope module regBank $end
$var event 1 ^# _ivl_18 $end
$var wire 5 _# a1 [4:0] $end
$var wire 5 `# a2 [4:0] $end
$var wire 5 a# a3 [4:0] $end
$var wire 1 r" clk $end
$var wire 32 b# rd1 [31:0] $end
$var wire 32 c# rd2 [31:0] $end
$var wire 32 d# wd3 [31:0] $end
$var wire 1 {" we $end
$var integer 32 e# i [31:0] $end
$upscope $end
$scope module sExt $end
$var wire 32 f# instr [31:0] $end
$var wire 2 g# src [1:0] $end
$var wire 32 h# immExt [31:0] $end
$var reg 32 i# immaux [31:0] $end
$upscope $end
$upscope $end
$scope module unitControl $end
$var wire 2 j# ALUop [1:0] $end
$var wire 3 k# f3 [2:0] $end
$var wire 1 ~" f7 $end
$var wire 1 w" jump $end
$var wire 7 l# op [6:0] $end
$var wire 1 x" zero $end
$var wire 2 m# resSrc [1:0] $end
$var wire 1 {" regWrite $end
$var wire 1 q" memWrite $end
$var wire 2 n# immSrc [1:0] $end
$var wire 1 "# branch $end
$var wire 1 ## aluSrc $end
$var wire 3 o# ALUcontrol [2:0] $end
$scope module ALUDecoder $end
$var wire 3 p# aluControl [2:0] $end
$var wire 2 q# aluOp [1:0] $end
$var wire 3 r# f3 [2:0] $end
$var wire 1 ~" f7 $end
$var wire 1 s# op $end
$var reg 3 t# aluControlAux [2:0] $end
$upscope $end
$scope module MainDecoder $end
$var wire 2 u# aluOp [1:0] $end
$var wire 1 ## aluSrc $end
$var wire 1 "# branch $end
$var wire 2 v# immSrc [1:0] $end
$var wire 1 w" jump $end
$var wire 1 q" memWrite $end
$var wire 7 w# op [6:0] $end
$var wire 1 {" regWrite $end
$var wire 2 x# resSrc [1:0] $end
$var reg 2 y# aluOpAux [1:0] $end
$var reg 1 z# aluSrcAux $end
$var reg 1 {# branchAux $end
$var reg 2 |# immSrcAux [1:0] $end
$var reg 1 }# jumpAux $end
$var reg 1 ~# memWriteAux $end
$var reg 1 !$ regWriteAux $end
$var reg 2 "$ resSrcAux [1:0] $end
$upscope $end
$upscope $end
$upscope $end
$upscope $end
$enddefinitions $end
#0
$dumpvars
b0 "$
1!$
0~#
0}#
b0 |#
0{#
1z#
b10 y#
b0 x#
b10011 w#
b0 v#
bx0 u#
b0 t#
0s#
b0 r#
bx0 q#
b0 p#
b0 o#
b0 n#
b0 m#
b10011 l#
b0 k#
bx0 j#
b11 i#
b11 h#
b0 g#
b1100000000010000010011 f#
b100000 e#
b11 d#
b0 c#
b0 b#
b1000 a#
b11 `#
b0 _#
1^#
b0 ]#
b100 \#
b0 [#
b11 Z#
b0 Y#
b11 X#
b11 W#
b100 V#
b100 U#
b11 T#
b100 S#
b11 R#
b0 Q#
b11 P#
bz O#
b100 N#
bx M#
b11 L#
b100 K#
b100 J#
b11 I#
b100 H#
b100 G#
b0 F#
b100 E#
b0 D#
b11 C#
b11 B#
b11 A#
b0 @#
b0 ?#
b11 >#
b11 =#
b100 <#
b0 ;#
b11 :#
b0 9#
b0 8#
b10011 7#
b0 6#
b11 5#
b100 4#
b11 3#
b0 2#
b100 1#
b11 0#
b100 /#
b0 .#
b11 -#
b0 ,#
b11 +#
b0 *#
bx )#
b0 (#
b1100000000010000010011 '#
b11 &#
b0 %#
b0 $#
1##
0"#
b0 !#
0~"
b0 }"
b10011 |"
1{"
b0 z"
b0 y"
0x"
0w"
bx v"
b1100000000010000010011 u"
bx t"
b1100000000010000010011 s"
0r"
0q"
b11 p"
b0 o"
b0 n"
0m"
0l"
b0 k"
0j"
b0 i"
b0 h"
b0 g"
0f"
b0 e"
zd"
b0 c"
b0 b"
0a"
1`"
1_"
b0 ^"
b0 ]"
b0 \"
b0 ["
b0 Z"
bx Y"
b0 X"
b0 W"
b0 V"
b0 U"
b0 T"
xS"
b0 R"
b0 Q"
b0 P"
0O"
0N"
bx M"
xL"
zK"
xJ"
bx I"
xH"
0G"
1F"
xE"
b0 D"
zC"
b0 B"
1A"
0@"
0?"
b0 >"
0="
1<"
b10 ;"
b0 :"
b10011 9"
b0 8"
bx0 7"
b0 6"
05"
b0 4"
bx0 3"
b0 2"
b0 1"
b0 0"
b0 /"
b10011 ."
b0 -"
bx0 ,"
b0 +"
b0 *"
b0 )"
b1010010011 ("
b100000 '"
b0 &"
b0 %"
b0 $"
b101 #"
b0 ""
b0 !"
1~
b0 }
b100 |
b0 {
b0 z
b0 y
b0 x
b0 w
b100 v
b100 u
b0 t
b100 s
b0 r
b0 q
b0 p
bz o
b100 n
b0 m
b0 l
b100 k
b100 j
b0 i
b100 h
b100 g
b0 f
b100 e
b0 d
b0 c
b0 b
b0 a
b0 `
b0 _
b0 ^
b0 ]
b100 \
b0 [
b0 Z
b0 Y
b0 X
b10011 W
b0 V
b0 U
b100 T
b0 S
b0 R
b100 Q
b0 P
b100 O
b0 N
b0 M
b0 L
b0 K
b0 J
b0 I
b0 H
b1010010011 G
b0 F
b0 E
b0 D
1C
0B
b0 A
0@
b0 ?
b10011 >
1=
b0 <
b0 ;
0:
09
b0 8
b1010010011 7
b0 6
b1010010011 5
b100000 4
b0 3
b0 2
b0 1
b0 0
b1010010011 /
b0 .
b0 -
b0 ,
0+
b0 *
b1010010011 )
b0 (
b0 '
b0 &
b0 %
b0 $
0#
b0 "
b0 !
$end
#1000
1G"
#2000
0G"
#3000
1G"
#4000
0G"
#5000
1G"
#6000
0G"
#7000
1G"
#8000
0G"
#9000
1G"
#10000
0G"
#11000
1G"
#12000
0G"
#13000
1G"
#14000
0G"
#15000
1G"
#16000
0G"
#17000
1G"
#18000
0G"
#19000
1G"
#20000
0G"
0F"
#21000
0`"
1G"
#22000
0G"
#23000
0_"
1G"
#24000
0G"
#25000
b1 b"
1G"
#26000
0G"
#27000
b1 ^"
1G"
#28000
0G"
#29000
b10 ^"
1G"
#30000
0G"
#31000
b11 ^"
1G"
#32000
0G"
#33000
b100 ^"
1G"
#34000
0G"
#35000
b101 ^"
1G"
#36000
0G"
#37000
b110 ^"
1G"
#38000
0G"
#39000
b111 ^"
1G"
#40000
0G"
#41000
b1000 ^"
1G"
#42000
0G"
#43000
b1001 ^"
1G"
#44000
0G"
#45000
b1010 ^"
1G"
#46000
0G"
#47000
b1011 ^"
1G"
#48000
0G"
#49000
b1100 ^"
1G"
#50000
b0 ,"
b0 3"
b0 7"
b0 ;"
b1 <
b1 V
b1 q
b1 /"
b1 :"
b1 B"
b1000 1#
b1000 U#
b1000 \#
b1000 V#
b1000 Q
b1000 u
b1000 |
b1000 v
b1011 !"
b11100 #"
b10 A
b10 Y
b10 -"
b10 4"
b11 >
b11 W
b11 ."
b11 9"
b1000 N#
b1000 /#
b1000 E#
b1000 S#
b111 0#
b111 C#
b111 T#
b100 o"
b100 %#
b100 (#
b100 2#
b100 D#
b100 F#
b100 [#
b100 ]#
b1000 n
b1000 O
b1000 e
b1000 s
b100 P
b100 c
b100 t
b1011010111000000011 )
b1011010111000000011 /
b1011010111000000011 5
b1011010111000000011 7
b1011010111000000011 G
b1011010111000000011 ("
b100 (
b100 .
b100 6
b100 E
b100 H
b100 R
b100 d
b100 f
b100 {
b100 }
0G"
1r"
1m"
1#
#51000
b1101 ^"
1G"
#52000
0G"
#53000
b1110 ^"
1G"
#54000
0G"
#55000
b1111 ^"
1G"
#56000
0G"
#57000
b10000 ^"
1G"
#58000
0G"
#59000
b10001 ^"
1G"
#60000
0G"
#61000
b10010 ^"
1G"
#62000
0G"
#63000
b10011 ^"
1G"
#64000
0G"
#65000
b10 b"
b0 ^"
1G"
#66000
0G"
#67000
b1 ^"
1G"
#68000
0G"
#69000
b10 ^"
1G"
#70000
0G"
#71000
b11 ^"
1G"
#72000
0G"
#73000
b100 ^"
1G"
#74000
0G"
#75000
b101 ^"
1G"
#76000
0G"
#77000
b110 ^"
1G"
#78000
0G"
#79000
b111 ^"
1G"
#80000
0G"
#81000
b1000 ^"
1G"
#82000
0G"
#83000
b1001 ^"
1G"
#84000
0G"
#85000
b1010 ^"
1G"
#86000
0G"
#87000
b1011 ^"
1G"
#88000
0G"
#89000
b1100 ^"
1G"
#90000
0G"
#91000
b1101 ^"
1G"
#92000
0G"
#93000
b1110 ^"
1G"
#94000
0G"
#95000
b1111 ^"
1G"
#96000
0G"
#97000
b10000 ^"
1G"
#98000
0G"
#99000
b10001 ^"
1G"
#100000
b0 -#
b0 P#
b0 d#
b0 R#
b0 p"
b0 &#
b0 :#
b0 5#
b0 =#
b0 A#
b0 L#
b100 0#
b100 C#
b100 T#
b0 B#
b0 I#
b0 +#
b0 >#
b0 W#
b0 Z#
b0 `#
b0 a#
b0 3#
b0 X#
b0 h#
b0 i#
0G"
0r"
0m"
0#
1F"
b10011 s"
b10011 u"
b10011 '#
b10011 f#
#101000
1`"
b10010 ^"
1G"
#102000
0G"
#103000
b10011 ^"
1_"
1G"
#104000
0G"
#105000
b10100 ^"
1G"
#106000
0G"
#107000
b10101 ^"
1G"
#108000
0G"
#109000
b10110 ^"
1G"
#110000
0G"
#111000
b10111 ^"
1G"
#112000
0G"
#113000
b11000 ^"
1G"
#114000
0G"
#115000
b11001 ^"
1G"
#116000
0G"
#117000
b11010 ^"
1G"
#118000
0G"
#119000
b11011 ^"
1G"
#120000
0G"
#121000
b11100 ^"
1G"
#122000
0G"
#123000
b11101 ^"
1G"
#124000
0G"
#125000
b11110 ^"
1G"
#126000
0G"
#127000
b11111 ^"
1G"
#128000
0G"
#129000
b100000 ^"
1G"
#130000
0G"
#131000
b100001 ^"
1G"
#132000
0G"
#133000
b100010 ^"
1G"
#134000
0G"
#135000
b100011 ^"
1G"
#136000
0G"
#137000
b100100 ^"
1G"
#138000
0G"
#139000
b100101 ^"
1G"
#140000
0G"
#141000
b100110 ^"
1G"
#142000
0G"
#143000
b1 ]"
b1 P"
b1 U"
b1 \"
b1 c"
b0 ^"
1G"
#144000
0G"
#145000
b1 ^"
1G"
#146000
0G"
#147000
b10 ^"
1G"
#148000
0G"
#149000
b11 ^"
1G"
#150000
b0 "
b0 $
b0 *
b0 0
b0 3
b0 F
b0 Z
b0 M
b0 p
b0 &"
b0 r
b0 U
b0 ]
b0 a
b0 l
15"
bx0 ,"
bx0 3"
bx0 7"
b10 ;"
0C
0<"
b0 <
b0 V
b0 q
b0 /"
b0 :"
b0 B"
b11100 b
b11100 i
b0 K
b0 ^
b0 w
b0 z
b1100 1#
b1100 U#
b1100 \#
b1100 V#
b1100 Q
b1100 u
b1100 |
b1100 v
b0 !"
b11100 ""
b11111 #"
b0 A
b0 Y
b0 -"
b0 4"
b110011 >
b110011 W
b110011 ."
b110011 9"
b11100 S
b11100 x
b11100 *"
b11100 +"
b1100 N#
b1100 /#
b1100 E#
b1100 S#
b1000 0#
b1000 C#
b1000 T#
b1000 o"
b1000 %#
b1000 (#
b1000 2#
b1000 D#
b1000 F#
b1000 [#
b1000 ]#
b1100 n
b1100 O
b1100 e
b1100 s
b100100 P
b100100 c
b100100 t
b1110000000000111110110011 )
b1110000000000111110110011 /
b1110000000000111110110011 5
b1110000000000111110110011 7
b1110000000000111110110011 G
b1110000000000111110110011 ("
b1000 (
b1000 .
b1000 6
b1000 E
b1000 H
b1000 R
b1000 d
b1000 f
b1000 {
b1000 }
0G"
1r"
1m"
1#
#151000
b100 ^"
1G"
#152000
0G"
#153000
b101 ^"
1G"
#154000
0G"
#155000
b110 ^"
1G"
#156000
0G"
#157000
b111 ^"
1G"
#158000
0G"
#159000
b1000 ^"
1G"
#160000
0G"
#161000
b1001 ^"
1G"
#162000
0G"
#163000
b1010 ^"
1G"
#164000
0G"
#165000
b1011 ^"
1G"
#166000
0G"
#167000
b1100 ^"
1G"
#168000
0G"
#169000
b1101 ^"
1G"
#170000
0G"
#171000
b1110 ^"
1G"
#172000
0G"
#173000
b1111 ^"
1G"
#174000
0G"
#175000
b10000 ^"
1G"
#176000
0G"
#177000
b10001 ^"
1G"
#178000
0G"
#179000
b10010 ^"
1G"
#180000
0G"
0F"
#181000
0`"
b10011 ^"
1G"
#182000
0G"
#183000
b10100 ^"
0_"
1G"
#184000
0G"
#185000
b10101 ^"
1G"
#186000
0G"
#187000
b10110 ^"
1G"
#188000
0G"
#189000
b10111 ^"
1G"
#190000
0G"
#191000
b11000 ^"
1G"
#192000
0G"
#193000
b11001 ^"
1G"
#194000
0G"
#195000
b11010 ^"
1G"
#196000
0G"
#197000
b11011 ^"
1G"
#198000
0G"
#199000
b11100 ^"
1G"
#200000
b110 -#
b110 P#
b110 d#
b110 R#
b110 p"
b110 &#
b110 :#
b110 5#
b110 =#
b110 A#
b110 L#
b1011 0#
b1011 C#
b1011 T#
b11 B#
b11 I#
b11 +#
b11 >#
b11 W#
b11 Z#
b11 ,#
b11 ?#
b11 b#
b1000 _#
b11 `#
b1000 a#
b11 3#
b11 X#
b11 h#
b11 i#
0G"
0r"
0m"
0#
b1101000000010000010011 s"
b1101000000010000010011 u"
b1101000000010000010011 '#
b1101000000010000010011 f#
#201000
b11101 ^"
1G"
#202000
0G"
#203000
b11110 ^"
1G"
#204000
0G"
#205000
b11111 ^"
1G"
#206000
0G"
#207000
b100000 ^"
1G"
#208000
0G"
#209000
b100001 ^"
1G"
#210000
0G"
#211000
b100010 ^"
1G"
#212000
0G"
#213000
b100011 ^"
1G"
#214000
0G"
#215000
b100100 ^"
1G"
#216000
0G"
#217000
b100101 ^"
1G"
#218000
0G"
#219000
b100110 ^"
1G"
#220000
0G"
#221000
b10 ]"
b0 ^"
1G"
#222000
0G"
#223000
b1 ^"
1G"
#224000
0G"
#225000
b10 ^"
1G"
#226000
0G"
#227000
b11 ^"
1G"
#228000
0G"
#229000
b100 ^"
1G"
#230000
0G"
#231000
b101 ^"
1G"
#232000
0G"
#233000
b110 ^"
1G"
#234000
0G"
#235000
b111 ^"
1G"
#236000
0G"
#237000
b1000 ^"
1G"
#238000
0G"
#239000
b1001 ^"
1G"
#240000
0G"
#241000
b1010 ^"
1G"
#242000
0G"
#243000
b1011 ^"
1G"
#244000
0G"
#245000
b1100 ^"
1G"
#246000
0G"
#247000
b1101 ^"
1G"
#248000
0G"
#249000
b1110 ^"
1G"
#250000
b10000 M
b10000 p
b10000 &"
b10000 r
b1001 p"
b1001 &#
b1001 :#
b11 ?
b11 X
b11 )"
b11 0"
b11 8"
b11 >"
b10 <
b10 V
b10 q
b10 /"
b10 :"
b10 B"
x9
1?"
b1111111111110100 b
b1111111111110100 i
b1001 -#
b1001 P#
b1001 d#
b1001 R#
b10000 1#
b10000 U#
b10000 \#
b10000 V#
b1001 5#
b1001 =#
b1001 A#
b1001 L#
b10000 Q
b10000 u
b10000 |
b10000 v
b11111 !"
b10101 ""
b0 #"
1@
b111 A
b111 Y
b111 -"
b111 4"
b1101111 >
b1101111 W
b1101111 ."
b1101111 9"
b11111111111111111111111111110100 S
b11111111111111111111111111110100 x
b11111111111111111111111111110100 *"
b11111111111111111111111111110100 +"
b10000 N#
b10000 /#
b10000 E#
b10000 S#
b1111 0#
b1111 C#
b1111 T#
b1100 o"
b1100 %#
b1100 (#
b1100 2#
b1100 D#
b1100 F#
b1100 [#
b1100 ]#
b110 ,#
b110 ?#
b110 b#
b10000 n
b10000 O
b10000 e
b10000 s
b0 P
b0 c
b0 t
b11111111010111111111000001101111 )
b11111111010111111111000001101111 /
b11111111010111111111000001101111 5
b11111111010111111111000001101111 7
b11111111010111111111000001101111 G
b11111111010111111111000001101111 ("
b1100 (
b1100 .
b1100 6
b1100 E
b1100 H
b1100 R
b1100 d
b1100 f
b1100 {
b1100 }
0G"
1r"
1m"
1#
#251000
b1111 ^"
1G"
#252000
0G"
#253000
b10000 ^"
1G"
#254000
0G"
#255000
b10001 ^"
1G"
#256000
0G"
#257000
b10010 ^"
1G"
#258000
0G"
#259000
b10011 ^"
1G"
#260000
0G"
#261000
b10100 ^"
1G"
#262000
0G"
#263000
b10101 ^"
1G"
#264000
0G"
#265000
b10110 ^"
1G"
#266000
0G"
#267000
b10111 ^"
1G"
#268000
0G"
#269000
b11000 ^"
1G"
#270000
0G"
#271000
b11001 ^"
1G"
#272000
0G"
#273000
b11010 ^"
1G"
#274000
0G"
#275000
b11011 ^"
1G"
#276000
0G"
#277000
b11100 ^"
1G"
#278000
0G"
#279000
b11101 ^"
1G"
#280000
0G"
#281000
b11110 ^"
1G"
#282000
0G"
#283000
b11111 ^"
1G"
#284000
0G"
#285000
b100000 ^"
1G"
#286000
0G"
#287000
b100001 ^"
1G"
#288000
0G"
#289000
b100010 ^"
1G"
#290000
0G"
#291000
b100011 ^"
1G"
#292000
0G"
#293000
b100100 ^"
1G"
#294000
0G"
#295000
b100101 ^"
1G"
#296000
0G"
#297000
b100110 ^"
1G"
