TPI/TPI-Codigo/Top_tb.vcd
$date
	Thu Nov 02 16:58:46 2023
$end
$version
	Icarus Verilog
$end
$timescale
	1ps
$end
$scope module Top_tb $end
$var wire 32 ! sal [31:0] $end
$var wire 16 " addressSal [15:0] $end
$var reg 1 # clk $end
$scope module UUT $end
$var wire 16 $ addressSal [15:0] $end
$var wire 1 # clk $end
$var wire 32 % sal [31:0] $end
$var wire 32 & s_writeData [31:0] $end
$var wire 32 ' s_readData [31:0] $end
$var wire 16 ( s_pc [15:0] $end
$var wire 32 ) s_instr [31:0] $end
$var wire 16 * s_address [15:0] $end
$var wire 1 + s_WE $end
$scope module Memory $end
$var wire 1 # clk $end
$var wire 32 , writeData [31:0] $end
$var wire 32 - readData [31:0] $end
$var wire 16 . pc [15:0] $end
$var wire 32 / instr [31:0] $end
$var wire 16 0 address [15:0] $end
$var wire 1 + WE $end
$scope module dataMem $end
$var wire 1 # clk $end
$var wire 32 1 rd [31:0] $end
$var wire 1 + we $end
$var wire 32 2 wd [31:0] $end
$var wire 16 3 address [15:0] $end
$var integer 32 4 i [31:0] $end
$upscope $end
$scope module instrMem $end
$var wire 32 5 instr [31:0] $end
$var wire 16 6 pc [15:0] $end
$upscope $end
$upscope $end
$scope module RV $end
$var wire 1 7 Zero $end
$var wire 1 # clk $end
$var wire 32 8 instr [31:0] $end
$var wire 32 9 readData [31:0] $end
$var wire 32 : writeData [31:0] $end
$var wire 1 ; resSrc $end
$var wire 1 < regWrite $end
$var wire 1 = pcSrc $end
$var wire 16 > pc [15:0] $end
$var wire 7 ? op [6:0] $end
$var wire 2 @ inmSrc [1:0] $end
$var wire 1 A f7 $end
$var wire 3 B f3 [2:0] $end
$var wire 16 C address [15:0] $end
$var wire 1 + WE $end
$var wire 1 D ALUSrc $end
$var wire 3 E ALUControl [2:0] $end
$scope module DataPath $end
$var wire 1 # clk $end
$var wire 32 F instr [31:0] $end
$var wire 16 G pc [15:0] $end
$var wire 32 H readData [31:0] $end
$var wire 32 I writeData [31:0] $end
$var wire 1 7 zero $end
$var wire 32 J s_wd3 [31:0] $end
$var wire 32 K s_srcB [31:0] $end
$var wire 32 L s_rd2 [31:0] $end
$var wire 32 M s_rd1 [31:0] $end
$var wire 16 N s_pcNext [15:0] $end
$var wire 16 O s_pc [15:0] $end
$var wire 32 P s_immExt [31:0] $end
$var wire 32 Q s_addImm [31:0] $end
$var wire 16 R s_add4 [15:0] $end
$var wire 32 S s_ALUres [31:0] $end
$var wire 1 ; resSrc $end
$var wire 1 < regWrite $end
$var wire 1 = pcSrc $end
$var wire 7 T op [6:0] $end
$var wire 2 U inmSrc [1:0] $end
$var wire 1 A f7 $end
$var wire 3 V f3 [2:0] $end
$var wire 16 W address [15:0] $end
$var wire 32 X DEBUGx8 [31:0] $end
$var wire 32 Y DEBUGx0 [31:0] $end
$var wire 1 D ALUSrc $end
$var wire 3 Z ALUControl [2:0] $end
$var reg 16 [ cuatro [15:0] $end
$scope module ALU1 $end
$var wire 32 \ res [31:0] $end
$var wire 32 ] srcB [31:0] $end
$var wire 32 ^ srcA [31:0] $end
$var wire 3 _ ALUControl [2:0] $end
$var reg 32 ` aux [31:0] $end
$upscope $end
$scope module PCadd4 $end
$var wire 16 a op2 [15:0] $end
$var wire 16 b res [15:0] $end
$var wire 16 c op1 [15:0] $end
$upscope $end
$scope module PCaddImm $end
$var wire 16 d op2 [15:0] $end
$var wire 16 e res [15:0] $end
$var wire 16 f op1 [15:0] $end
$upscope $end
$scope module PCounter $end
$var wire 1 # clk $end
$var wire 16 g pc [15:0] $end
$var wire 16 h pcNext [15:0] $end
$var reg 16 i count_reg [15:0] $end
$upscope $end
$scope module multData $end
$var wire 32 j e1 [31:0] $end
$var wire 32 k e2 [31:0] $end
$var wire 32 l sal [31:0] $end
$var wire 1 ; sel $end
$var reg 32 m aux [31:0] $end
$upscope $end
$scope module multPC $end
$var wire 16 n e1 [15:0] $end
$var wire 16 o e2 [15:0] $end
$var wire 16 p sal [15:0] $end
$var wire 1 = sel $end
$var reg 16 q aux [15:0] $end
$upscope $end
$scope module multSrcB $end
$var wire 32 r sal [31:0] $end
$var wire 1 D sel $end
$var wire 32 s e2 [31:0] $end
$var wire 32 t e1 [31:0] $end
$var reg 32 u aux [31:0] $end
$upscope $end
$scope module regBank $end
$var event 1 v _ivl_24 $end
$var wire 32 w DEBUGx0 [31:0] $end
$var wire 32 x DEBUGx8 [31:0] $end
$var wire 5 y a1 [4:0] $end
$var wire 5 z a2 [4:0] $end
$var wire 5 { a3 [4:0] $end
$var wire 1 # clk $end
$var wire 32 | rd1 [31:0] $end
$var wire 32 } rd2 [31:0] $end
$var wire 32 ~ wd3 [31:0] $end
$var wire 1 < we $end
$var integer 32 !" i [31:0] $end
$upscope $end
$scope module sExt $end
$var wire 32 "" instr [31:0] $end
$var wire 2 #" src [1:0] $end
$var wire 32 $" immExt [31:0] $end
$var reg 32 %" immaux [31:0] $end
$upscope $end
$upscope $end
$scope module unitControl $end
$var wire 2 &" ALUop [1:0] $end
$var wire 3 '" f3 [2:0] $end
$var wire 1 A f7 $end
$var wire 7 (" op [6:0] $end
$var wire 1 = pcSrc $end
$var wire 1 7 zero $end
$var wire 1 ; resSrc $end
$var wire 1 < regWrite $end
$var wire 1 + memWrite $end
$var wire 2 )" inmSrc [1:0] $end
$var wire 1 *" branch $end
$var wire 1 D aluSrc $end
$var wire 3 +" ALUcontrol [2:0] $end
$var reg 1 ," pcSrcAux $end
$scope module ALUDecoder $end
$var wire 3 -" aluControl [2:0] $end
$var wire 2 ." aluOp [1:0] $end
$var wire 3 /" f3 [2:0] $end
$var wire 1 A f7 $end
$var wire 1 0" op $end
$var reg 3 1" aluControlAux [2:0] $end
$upscope $end
$scope module MainDecoder $end
$var wire 2 2" aluOp [1:0] $end
$var wire 1 D aluSrc $end
$var wire 1 *" branch $end
$var wire 2 3" inmSrc [1:0] $end
$var wire 1 + memWrite $end
$var wire 7 4" op [6:0] $end
$var wire 1 < regWrite $end
$var wire 1 ; resSrc $end
$var reg 2 5" aluOpAux [1:0] $end
$var reg 1 6" aluSrcAux $end
$var reg 1 7" branchAux $end
$var reg 2 8" inmSrcAux [1:0] $end
$var reg 1 9" memWriteAux $end
$var reg 1 :" regWriteAux $end
$var reg 1 ;" resSrcAux $end
$upscope $end
$upscope $end
$upscope $end
$upscope $end
$upscope $end
$scope module dataPath_tb $end
$var wire 1 <" f7 $end
$var wire 1 =" zero $end
$var wire 32 >" writeData [31:0] $end
$var wire 16 ?" pc [15:0] $end
$var wire 7 @" op [6:0] $end
$var wire 16 A" address [15:0] $end
$var reg 3 B" ALUControl [2:0] $end
$var reg 1 C" ALUSrc $end
$var reg 1 D" clk $end
$var reg 2 E" inmSrc [1:0] $end
$var reg 32 F" instr [31:0] $end
$var reg 1 G" pcSrc $end
$var reg 32 H" readData [31:0] $end
$var reg 1 I" regWrite $end
$var reg 1 J" resSrc $end
$scope module UUT $end
$var wire 3 K" ALUControl [2:0] $end
$var wire 1 C" ALUSrc $end
$var wire 1 D" clk $end
$var wire 1 <" f7 $end
$var wire 2 L" inmSrc [1:0] $end
$var wire 32 M" instr [31:0] $end
$var wire 16 N" pc [15:0] $end
$var wire 1 G" pcSrc $end
$var wire 32 O" readData [31:0] $end
$var wire 1 I" regWrite $end
$var wire 1 J" resSrc $end
$var wire 32 P" writeData [31:0] $end
$var wire 1 =" zero $end
$var wire 32 Q" s_wd3 [31:0] $end
$var wire 32 R" s_srcB [31:0] $end
$var wire 32 S" s_rd2 [31:0] $end
$var wire 32 T" s_rd1 [31:0] $end
$var wire 16 U" s_pcNext [15:0] $end
$var wire 16 V" s_pc [15:0] $end
$var wire 32 W" s_immExt [31:0] $end
$var wire 32 X" s_addImm [31:0] $end
$var wire 16 Y" s_add4 [15:0] $end
$var wire 32 Z" s_ALUres [31:0] $end
$var wire 7 [" op [6:0] $end
$var wire 3 \" f3 [2:0] $end
$var wire 16 ]" address [15:0] $end
$var wire 32 ^" DEBUGx8 [31:0] $end
$var wire 32 _" DEBUGx0 [31:0] $end
$var reg 16 `" cuatro [15:0] $end
$scope module ALU1 $end
$var wire 3 a" ALUControl [2:0] $end
$var wire 32 b" res [31:0] $end
$var wire 32 c" srcB [31:0] $end
$var wire 32 d" srcA [31:0] $end
$var reg 32 e" aux [31:0] $end
$upscope $end
$scope module PCadd4 $end
$var wire 16 f" op2 [15:0] $end
$var wire 16 g" res [15:0] $end
$var wire 16 h" op1 [15:0] $end
$upscope $end
$scope module PCaddImm $end
$var wire 16 i" op2 [15:0] $end
$var wire 16 j" res [15:0] $end
$var wire 16 k" op1 [15:0] $end
$upscope $end
$scope module PCounter $end
$var wire 1 D" clk $end
$var wire 16 l" pc [15:0] $end
$var wire 16 m" pcNext [15:0] $end
$var reg 16 n" count_reg [15:0] $end
$upscope $end
$scope module multData $end
$var wire 32 o" e1 [31:0] $end
$var wire 32 p" e2 [31:0] $end
$var wire 32 q" sal [31:0] $end
$var wire 1 J" sel $end
$var reg 32 r" aux [31:0] $end
$upscope $end
$scope module multPC $end
$var wire 16 s" e1 [15:0] $end
$var wire 16 t" e2 [15:0] $end
$var wire 16 u" sal [15:0] $end
$var wire 1 G" sel $end
$var reg 16 v" aux [15:0] $end
$upscope $end
$scope module multSrcB $end
$var wire 32 w" sal [31:0] $end
$var wire 1 C" sel $end
$var wire 32 x" e2 [31:0] $end
$var wire 32 y" e1 [31:0] $end
$var reg 32 z" aux [31:0] $end
$upscope $end
$scope module regBank $end
$var event 1 {" _ivl_24 $end
$var wire 32 |" DEBUGx0 [31:0] $end
$var wire 32 }" DEBUGx8 [31:0] $end
$var wire 5 ~" a1 [4:0] $end
$var wire 5 !# a2 [4:0] $end
$var wire 5 "# a3 [4:0] $end
$var wire 1 D" clk $end
$var wire 32 ## rd1 [31:0] $end
$var wire 32 $# rd2 [31:0] $end
$var wire 32 %# wd3 [31:0] $end
$var wire 1 I" we $end
$var integer 32 &# i [31:0] $end
$upscope $end
$scope module sExt $end
$var wire 32 '# instr [31:0] $end
$var wire 2 (# src [1:0] $end
$var wire 32 )# immExt [31:0] $end
$var reg 32 *# immaux [31:0] $end
$upscope $end
$upscope $end
$upscope $end
$scope module rv32i_tb $end
$var wire 32 +# writeData [31:0] $end
$var wire 16 ,# pc [15:0] $end
$var wire 16 -# address [15:0] $end
$var wire 1 .# WE $end
$var reg 1 /# clk $end
$var reg 32 0# instr [31:0] $end
$var reg 32 1# readData [31:0] $end
$scope module UUT $end
$var wire 1 2# Zero $end
$var wire 1 /# clk $end
$var wire 32 3# instr [31:0] $end
$var wire 32 4# readData [31:0] $end
$var wire 32 5# writeData [31:0] $end
$var wire 1 6# resSrc $end
$var wire 1 7# regWrite $end
$var wire 1 8# pcSrc $end
$var wire 16 9# pc [15:0] $end
$var wire 7 :# op [6:0] $end
$var wire 2 ;# inmSrc [1:0] $end
$var wire 1 <# f7 $end
$var wire 3 =# f3 [2:0] $end
$var wire 16 ># address [15:0] $end
$var wire 1 .# WE $end
$var wire 1 ?# ALUSrc $end
$var wire 3 @# ALUControl [2:0] $end
$scope module DataPath $end
$var wire 1 /# clk $end
$var wire 32 A# instr [31:0] $end
$var wire 16 B# pc [15:0] $end
$var wire 32 C# readData [31:0] $end
$var wire 32 D# writeData [31:0] $end
$var wire 1 2# zero $end
$var wire 32 E# s_wd3 [31:0] $end
$var wire 32 F# s_srcB [31:0] $end
$var wire 32 G# s_rd2 [31:0] $end
$var wire 32 H# s_rd1 [31:0] $end
$var wire 16 I# s_pcNext [15:0] $end
$var wire 16 J# s_pc [15:0] $end
$var wire 32 K# s_immExt [31:0] $end
$var wire 32 L# s_addImm [31:0] $end
$var wire 16 M# s_add4 [15:0] $end
$var wire 32 N# s_ALUres [31:0] $end
$var wire 1 6# resSrc $end
$var wire 1 7# regWrite $end
$var wire 1 8# pcSrc $end
$var wire 7 O# op [6:0] $end
$var wire 2 P# inmSrc [1:0] $end
$var wire 1 <# f7 $end
$var wire 3 Q# f3 [2:0] $end
$var wire 16 R# address [15:0] $end
$var wire 32 S# DEBUGx8 [31:0] $end
$var wire 32 T# DEBUGx0 [31:0] $end
$var wire 1 ?# ALUSrc $end
$var wire 3 U# ALUControl [2:0] $end
$var reg 16 V# cuatro [15:0] $end
$scope module ALU1 $end
$var wire 32 W# res [31:0] $end
$var wire 32 X# srcB [31:0] $end
$var wire 32 Y# srcA [31:0] $end
$var wire 3 Z# ALUControl [2:0] $end
$var reg 32 [# aux [31:0] $end
$upscope $end
$scope module PCadd4 $end
$var wire 16 \# op2 [15:0] $end
$var wire 16 ]# res [15:0] $end
$var wire 16 ^# op1 [15:0] $end
$upscope $end
$scope module PCaddImm $end
$var wire 16 _# op2 [15:0] $end
$var wire 16 `# res [15:0] $end
$var wire 16 a# op1 [15:0] $end
$upscope $end
$scope module PCounter $end
$var wire 1 /# clk $end
$var wire 16 b# pc [15:0] $end
$var wire 16 c# pcNext [15:0] $end
$var reg 16 d# count_reg [15:0] $end
$upscope $end
$scope module multData $end
$var wire 32 e# e1 [31:0] $end
$var wire 32 f# e2 [31:0] $end
$var wire 32 g# sal [31:0] $end
$var wire 1 6# sel $end
$var reg 32 h# aux [31:0] $end
$upscope $end
$scope module multPC $end
$var wire 16 i# e1 [15:0] $end
$var wire 16 j# e2 [15:0] $end
$var wire 16 k# sal [15:0] $end
$var wire 1 8# sel $end
$var reg 16 l# aux [15:0] $end
$upscope $end
$scope module multSrcB $end
$var wire 32 m# sal [31:0] $end
$var wire 1 ?# sel $end
$var wire 32 n# e2 [31:0] $end
$var wire 32 o# e1 [31:0] $end
$var reg 32 p# aux [31:0] $end
$upscope $end
$scope module regBank $end
$var event 1 q# _ivl_24 $end
$var wire 32 r# DEBUGx0 [31:0] $end
$var wire 32 s# DEBUGx8 [31:0] $end
$var wire 5 t# a1 [4:0] $end
$var wire 5 u# a2 [4:0] $end
$var wire 5 v# a3 [4:0] $end
$var wire 1 /# clk $end
$var wire 32 w# rd1 [31:0] $end
$var wire 32 x# rd2 [31:0] $end
$var wire 32 y# wd3 [31:0] $end
$var wire 1 7# we $end
$var integer 32 z# i [31:0] $end
$upscope $end
$scope module sExt $end
$var wire 32 {# instr [31:0] $end
$var wire 2 |# src [1:0] $end
$var wire 32 }# immExt [31:0] $end
$var reg 32 ~# immaux [31:0] $end
$upscope $end
$upscope $end
$scope module unitControl $end
$var wire 2 !$ ALUop [1:0] $end
$var wire 3 "$ f3 [2:0] $end
$var wire 1 <# f7 $end
$var wire 7 #$ op [6:0] $end
$var wire 1 8# pcSrc $end
$var wire 1 2# zero $end
$var wire 1 6# resSrc $end
$var wire 1 7# regWrite $end
$var wire 1 .# memWrite $end
$var wire 2 $$ inmSrc [1:0] $end
$var wire 1 %$ branch $end
$var wire 1 ?# aluSrc $end
$var wire 3 &$ ALUcontrol [2:0] $end
$var reg 1 '$ pcSrcAux $end
$scope module ALUDecoder $end
$var wire 3 ($ aluControl [2:0] $end
$var wire 2 )$ aluOp [1:0] $end
$var wire 3 *$ f3 [2:0] $end
$var wire 1 <# f7 $end
$var wire 1 +$ op $end
$var reg 3 ,$ aluControlAux [2:0] $end
$upscope $end
$scope module MainDecoder $end
$var wire 2 -$ aluOp [1:0] $end
$var wire 1 ?# aluSrc $end
$var wire 1 %$ branch $end
$var wire 2 .$ inmSrc [1:0] $end
$var wire 1 .# memWrite $end
$var wire 7 /$ op [6:0] $end
$var wire 1 7# regWrite $end
$var wire 1 6# resSrc $end
$var reg 2 0$ aluOpAux [1:0] $end
$var reg 1 1$ aluSrcAux $end
$var reg 1 2$ branchAux $end
$var reg 2 3$ inmSrcAux [1:0] $end
$var reg 1 4$ memWriteAux $end
$var reg 1 5$ regWriteAux $end
$var reg 1 6$ resSrcAux $end
$upscope $end
$upscope $end
$upscope $end
$upscope $end
$enddefinitions $end
#0
$dumpvars
06$
15$
04$
b0 3$
02$
11$
b10 0$
b10011 /$
b0 .$
bx0 -$
b0 ,$
0+$
b0 *$
bx0 )$
b0 ($
0'$
b0 &$
0%$
b0 $$
b10011 #$
b0 "$
bx0 !$
b11 ~#
b11 }#
b0 |#
b1100000000010000010011 {#
b100000 z#
b11 y#
b0 x#
b0 w#
b1000 v#
b11 u#
b0 t#
b0 s#
b0 r#
1q#
b11 p#
b0 o#
b11 n#
b11 m#
b100 l#
b100 k#
b11 j#
b100 i#
b11 h#
b11 g#
bx f#
b11 e#
b0 d#
b100 c#
b0 b#
b0 a#
b11 `#
b11 _#
b0 ^#
b100 ]#
b100 \#
b11 [#
b0 Z#
b0 Y#
b11 X#
b11 W#
b100 V#
b0 U#
b0 T#
b0 S#
b11 R#
b0 Q#
b0 P#
b10011 O#
b11 N#
b100 M#
b11 L#
b11 K#
b0 J#
b100 I#
b0 H#
b0 G#
b11 F#
b11 E#
b0 D#
bx C#
b0 B#
b1100000000010000010011 A#
b0 @#
1?#
b11 >#
b0 =#
0<#
b0 ;#
b10011 :#
b0 9#
08#
17#
06#
b0 5#
bx 4#
b1100000000010000010011 3#
02#
bx 1#
b1100000000010000010011 0#
0/#
0.#
b11 -#
b0 ,#
b0 +#
b11 *#
b11 )#
b0 (#
b1100000000010000010011 '#
b100000 &#
bx %#
b0 $#
b0 ##
b1000 "#
b11 !#
b0 ~"
b0 }"
b0 |"
1{"
b11 z"
b0 y"
b11 x"
b11 w"
b100 v"
b100 u"
b11 t"
b100 s"
bx r"
bx q"
bx p"
b11 o"
b0 n"
b100 m"
b0 l"
b0 k"
b11 j"
b11 i"
b0 h"
b100 g"
b100 f"
b11 e"
b0 d"
b11 c"
b11 b"
b0 a"
b100 `"
b0 _"
b0 ^"
b11 ]"
b0 \"
b10011 ["
b11 Z"
b100 Y"
b11 X"
b11 W"
b0 V"
b100 U"
b0 T"
b0 S"
b11 R"
bx Q"
b0 P"
bx O"
b0 N"
b1100000000010000010011 M"
b0 L"
b0 K"
1J"
1I"
bx H"
0G"
b1100000000010000010011 F"
b0 E"
0D"
1C"
b0 B"
b11 A"
b10011 @"
b0 ?"
b0 >"
0="
0<"
0;"
1:"
09"
b0 8"
07"
16"
b10 5"
b10011 4"
b0 3"
bx0 2"
b0 1"
00"
b0 /"
bx0 ."
b0 -"
0,"
b0 +"
0*"
b0 )"
b10011 ("
b0 '"
bx0 &"
b11 %"
b11 $"
b0 #"
b1100000000010000010011 ""
b100000 !"
b11 ~
b0 }
b0 |
b1000 {
b11 z
b0 y
b0 x
b0 w
1v
b11 u
b0 t
b11 s
b11 r
b100 q
b100 p
b11 o
b100 n
b11 m
b11 l
b0 k
b11 j
b0 i
b100 h
b0 g
b0 f
b11 e
b11 d
b0 c
b100 b
b100 a
b11 `
b0 _
b0 ^
b11 ]
b11 \
b100 [
b0 Z
b0 Y
b0 X
b11 W
b0 V
b0 U
b10011 T
b11 S
b100 R
b11 Q
b11 P
b0 O
b100 N
b0 M
b0 L
b11 K
b11 J
b0 I
b0 H
b0 G
b1100000000010000010011 F
b0 E
1D
b11 C
b0 B
0A
b0 @
b10011 ?
b0 >
0=
1<
0;
b0 :
b0 9
b1100000000010000010011 8
07
b0 6
b1100000000010000010011 5
b100000 4
b11 3
b0 2
b0 1
b11 0
b1100000000010000010011 /
b0 .
b0 -
b0 ,
0+
b11 *
b1100000000010000010011 )
b0 (
b0 '
b0 &
b0 %
b11 $
0#
b11 "
b0 !
$end
#50000
b0 J
b0 l
b0 ~
b0 m
b0 "
b0 $
b0 *
b0 0
b0 3
b0 C
b0 W
b0 S
b0 \
b0 `
b0 j
b0 d
b0 K
b0 ]
b0 r
b0 u
b111 j#
b1000 I#
b1000 c#
b1000 k#
b1000 l#
b111 t"
b1000 U"
b1000 m"
b1000 u"
b1000 v"
b100 o
b1000 N
b1000 h
b1000 p
b1000 q
b0 z
b0 {
b0 P
b0 s
b0 $"
b0 %"
b111 L#
b111 `#
b1000 M#
b1000 ]#
b1000 i#
b100 ,#
b100 9#
b100 B#
b100 J#
b100 ^#
b100 a#
b100 b#
b100 d#
b11 S#
b11 s#
b111 X"
b111 j"
b1000 Y"
b1000 g"
b1000 s"
b100 ?"
b100 N"
b100 V"
b100 h"
b100 k"
b100 l"
b100 n"
bx ^"
bx }"
b100 Q
b100 e
b1000 R
b1000 b
b1000 n
b10011 )
b10011 /
b10011 5
b10011 8
b10011 F
b10011 ""
b100 (
b100 .
b100 6
b100 >
b100 G
b100 O
b100 c
b100 f
b100 g
b100 i
b11 X
b11 x
1/#
1D"
1#
#100000
b0 E#
b0 g#
b0 y#
b0 h#
b0 -#
b0 >#
b0 R#
b100 j#
b0 N#
b0 W#
b0 [#
b0 e#
b100 L#
b100 `#
b0 _#
b0 F#
b0 X#
b0 m#
b0 p#
b0 u#
b0 v#
b0 K#
b0 n#
b0 }#
b0 ~#
0/#
0D"
0#
b10011 0#
b10011 3#
b10011 A#
b10011 {#
#150000
b110 J
b110 l
b110 ~
b110 m
b110 "
b110 $
b110 *
b110 0
b110 3
b110 C
b110 W
b110 S
b110 \
b110 `
b110 j
b11 d
b11 K
b11 ]
b11 r
b11 u
b1000 j#
b1100 I#
b1100 c#
b1100 k#
b1100 l#
b1011 t"
b1100 U"
b1100 m"
b1100 u"
b1100 v"
b1011 o
b1100 N
b1100 h
b1100 p
b1100 q
b11 M
b11 ^
b11 |
b1000 y
b11 z
b1000 {
b11 P
b11 s
b11 $"
b11 %"
b1000 L#
b1000 `#
b1100 M#
b1100 ]#
b1100 i#
b1000 ,#
b1000 9#
b1000 B#
b1000 J#
b1000 ^#
b1000 a#
b1000 b#
b1000 d#
b1011 X"
b1011 j"
b1100 Y"
b1100 g"
b1100 s"
b1000 ?"
b1000 N"
b1000 V"
b1000 h"
b1000 k"
b1000 l"
b1000 n"
b1011 Q
b1011 e
b1100 R
b1100 b
b1100 n
b1101000000010000010011 )
b1101000000010000010011 /
b1101000000010000010011 5
b1101000000010000010011 8
b1101000000010000010011 F
b1101000000010000010011 ""
b1000 (
b1000 .
b1000 6
b1000 >
b1000 G
b1000 O
b1000 c
b1000 f
b1000 g
b1000 i
1/#
1D"
1#
#200000
b110 E#
b110 g#
b110 y#
b110 h#
b110 -#
b110 >#
b110 R#
b1011 j#
bx A"
bx ]"
b110 N#
b110 W#
b110 [#
b110 e#
b1011 L#
b1011 `#
b11 _#
b11 F#
b11 X#
b11 m#
b11 p#
bx Z"
bx b"
bx e"
bx o"
b11 H#
b11 Y#
b11 w#
b1000 t#
b11 u#
b1000 v#
b11 K#
b11 n#
b11 }#
b11 ~#
bx T"
bx d"
bx ##
b1000 ~"
0/#
0D"
0#
b1101000000010000010011 0#
b1101000000010000010011 3#
b1101000000010000010011 A#
b1101000000010000010011 {#
b1101000000010000010011 F"
b1101000000010000010011 M"
b1101000000010000010011 '#
#250000
b1001 E#
b1001 g#
b1001 y#
b1001 h#
b1001 -#
b1001 >#
b1001 R#
b0 d
b0 K
b0 ]
b0 r
b0 u
b0 J
b0 l
b0 ~
b0 m
b0 "
b0 $
b0 *
b0 0
b0 3
b0 C
b0 W
b1111 j#
b10000 I#
b10000 c#
b10000 k#
b10000 l#
b1001 N#
b1001 W#
b1001 [#
b1001 e#
b1111 t"
b10000 U"
b10000 m"
b10000 u"
b10000 v"
b1100 o
b10000 N
b10000 h
b10000 p
b10000 q
b0 y
b0 z
b0 {
b0 P
b0 s
b0 $"
b0 %"
b0 S
b0 \
b0 `
b0 j
b1111 L#
b1111 `#
b10000 M#
b10000 ]#
b10000 i#
b1100 ,#
b1100 9#
b1100 B#
b1100 J#
b1100 ^#
b1100 a#
b1100 b#
b1100 d#
b110 H#
b110 Y#
b110 w#
b110 S#
b110 s#
b1111 X"
b1111 j"
b10000 Y"
b10000 g"
b10000 s"
b1100 ?"
b1100 N"
b1100 V"
b1100 h"
b1100 k"
b1100 l"
b1100 n"
b1100 Q
b1100 e
b10000 R
b10000 b
b10000 n
b10011 )
b10011 /
b10011 5
b10011 8
b10011 F
b10011 ""
b1100 (
b1100 .
b1100 6
b1100 >
b1100 G
b1100 O
b1100 c
b1100 f
b1100 g
b1100 i
b0 M
b0 ^
b0 |
b110 X
b110 x
1/#
1D"
1#
#300000
b0 E#
b0 g#
b0 y#
b0 h#
b0 -#
b0 >#
b0 R#
b1100 j#
b0 N#
b0 W#
b0 [#
b0 e#
b1100 L#
b1100 `#
b0 _#
b0 F#
b0 X#
b0 m#
b0 p#
b0 H#
b0 Y#
b0 w#
b0 t#
b0 u#
b0 v#
b0 K#
b0 n#
b0 }#
b0 ~#
0/#
0D"
0#
b10011 0#
b10011 3#
b10011 A#
b10011 {#
#350000
b1000 J
b1000 l
b1000 ~
b1000 m
b1000 "
b1000 $
b1000 *
b1000 0
b1000 3
b1000 C
b1000 W
b1000 S
b1000 \
b1000 `
b1000 j
b10 d
b10 K
b10 ]
b10 r
b10 u
b10000 j#
b10100 I#
b10100 c#
b10100 k#
b10100 l#
b10011 t"
b10100 U"
b10100 m"
b10100 u"
b10100 v"
b10010 o
b10100 N
b10100 h
b10100 p
b10100 q
b110 M
b110 ^
b110 |
b1000 y
b10 z
b1000 {
b10 P
b10 s
b10 $"
b10 %"
b10000 L#
b10000 `#
b10100 M#
b10100 ]#
b10100 i#
b10000 ,#
b10000 9#
b10000 B#
b10000 J#
b10000 ^#
b10000 a#
b10000 b#
b10000 d#
b10011 X"
b10011 j"
b10100 Y"
b10100 g"
b10100 s"
b10000 ?"
b10000 N"
b10000 V"
b10000 h"
b10000 k"
b10000 l"
b10000 n"
b10010 Q
b10010 e
b10100 R
b10100 b
b10100 n
b1001000000010000010011 )
b1001000000010000010011 /
b1001000000010000010011 5
b1001000000010000010011 8
b1001000000010000010011 F
b1001000000010000010011 ""
b10000 (
b10000 .
b10000 6
b10000 >
b10000 G
b10000 O
b10000 c
b10000 f
b10000 g
b10000 i
1/#
1D"
1#
#400000
b1000 E#
b1000 g#
b1000 y#
b1000 h#
b1000 -#
b1000 >#
b1000 R#
b10010 j#
b10010 t"
b1000 N#
b1000 W#
b1000 [#
b1000 e#
b10010 L#
b10010 `#
b10 _#
b10 F#
b10 X#
b10 m#
b10 p#
b10010 X"
b10010 j"
b10 i"
b10 R"
b10 c"
b10 w"
b10 z"
b110 H#
b110 Y#
b110 w#
b1000 t#
b10 u#
b1000 v#
b10 K#
b10 n#
b10 }#
b10 ~#
b10 !#
b10 W"
b10 x"
b10 )#
b10 *#
0/#
0D"
0#
b1001000000010000010011 0#
b1001000000010000010011 3#
b1001000000010000010011 A#
b1001000000010000010011 {#
b1001000000010000010011 F"
b1001000000010000010011 M"
b1001000000010000010011 '#
#450000
b1010 E#
b1010 g#
b1010 y#
b1010 h#
b1010 -#
b1010 >#
b1010 R#
b0 d
b0 K
b0 ]
b0 r
b0 u
b0 J
b0 l
b0 ~
b0 m
b0 "
b0 $
b0 *
b0 0
b0 3
b0 C
b0 W
b10110 j#
b11000 I#
b11000 c#
b11000 k#
b11000 l#
b1010 N#
b1010 W#
b1010 [#
b1010 e#
b10110 t"
b11000 U"
b11000 m"
b11000 u"
b11000 v"
b10100 o
b11000 N
b11000 h
b11000 p
b11000 q
b0 y
b0 z
b0 {
b0 P
b0 s
b0 $"
b0 %"
b0 S
b0 \
b0 `
b0 j
b10110 L#
b10110 `#
b11000 M#
b11000 ]#
b11000 i#
b10100 ,#
b10100 9#
b10100 B#
b10100 J#
b10100 ^#
b10100 a#
b10100 b#
b10100 d#
b1000 H#
b1000 Y#
b1000 w#
b1000 S#
b1000 s#
b10110 X"
b10110 j"
b11000 Y"
b11000 g"
b11000 s"
b10100 ?"
b10100 N"
b10100 V"
b10100 h"
b10100 k"
b10100 l"
b10100 n"
b10100 Q
b10100 e
b11000 R
b11000 b
b11000 n
b10011 )
b10011 /
b10011 5
b10011 8
b10011 F
b10011 ""
b10100 (
b10100 .
b10100 6
b10100 >
b10100 G
b10100 O
b10100 c
b10100 f
b10100 g
b10100 i
b0 M
b0 ^
b0 |
b1000 X
b1000 x
1/#
1D"
1#
#500000
b0 E#
b0 g#
b0 y#
b0 h#
b0 -#
b0 >#
b0 R#
b10100 j#
b0 N#
b0 W#
b0 [#
b0 e#
b10100 L#
b10100 `#
b0 _#
b0 F#
b0 X#
b0 m#
b0 p#
b0 H#
b0 Y#
b0 w#
b0 t#
b0 u#
b0 v#
b0 K#
b0 n#
b0 }#
b0 ~#
0/#
0D"
0#
b10011 0#
b10011 3#
b10011 A#
b10011 {#
#550000
b1000 J
b1000 l
b1000 ~
b1000 m
b1000 "
b1000 $
b1000 *
b1000 0
b1000 3
b1000 C
b1000 W
b1000 S
b1000 \
b1000 `
b1000 j
b11000 j#
b11100 I#
b11100 c#
b11100 k#
b11100 l#
b11010 t"
b11100 U"
b11100 m"
b11100 u"
b11100 v"
b11000 o
b11100 N
b11100 h
b11100 p
b11100 q
b1000 M
b1000 ^
b1000 |
b1000 y
b1000 {
b11000 L#
b11000 `#
b11100 M#
b11100 ]#
b11100 i#
b11000 ,#
b11000 9#
b11000 B#
b11000 J#
b11000 ^#
b11000 a#
b11000 b#
b11000 d#
b11010 X"
b11010 j"
b11100 Y"
b11100 g"
b11100 s"
b11000 ?"
b11000 N"
b11000 V"
b11000 h"
b11000 k"
b11000 l"
b11000 n"
b11000 Q
b11000 e
b11100 R
b11100 b
b11100 n
b1000000010000010011 )
b1000000010000010011 /
b1000000010000010011 5
b1000000010000010011 8
b1000000010000010011 F
b1000000010000010011 ""
b11000 (
b11000 .
b11000 6
b11000 >
b11000 G
b11000 O
b11000 c
b11000 f
b11000 g
b11000 i
1/#
1D"
1#
