TPI/TPI-Codigo/Top_tb.vcd
$date
	Thu Nov 09 02:41:37 2023
$end
$version
	Icarus Verilog
$end
$timescale
	1ps
$end
$scope module Top_tb $end
$var wire 32 ! sal [31:0] $end
$var wire 16 " addressSal [15:0] $end
$var reg 1 # clk $end
$scope module UUT $end
$var wire 16 $ addressSal [15:0] $end
$var wire 1 # clk $end
$var wire 32 % sal [31:0] $end
$var wire 32 & s_writeData [31:0] $end
$var wire 32 ' s_readData [31:0] $end
$var wire 16 ( s_pc [15:0] $end
$var wire 32 ) s_instr [31:0] $end
$var wire 16 * s_address [15:0] $end
$var wire 1 + s_WE $end
$scope module Memory $end
$var wire 1 # clk $end
$var wire 32 , writeData [31:0] $end
$var wire 32 - readData [31:0] $end
$var wire 16 . pc [15:0] $end
$var wire 32 / instr [31:0] $end
$var wire 2 0 block_select [1:0] $end
$var wire 16 1 address_virtual [15:0] $end
$var wire 16 2 address_physical [15:0] $end
$var wire 1 + WE $end
$var wire 1 3 StackEnable $end
$var wire 1 4 MMIOEnable $end
$var wire 1 5 DataEnable $end
$scope module dataMem $end
$var wire 1 # clk $end
$var wire 32 6 rd [31:0] $end
$var wire 1 5 we $end
$var wire 32 7 wd [31:0] $end
$var wire 16 8 address [15:0] $end
$var integer 32 9 i [31:0] $end
$upscope $end
$scope module instrMem $end
$var wire 32 : instr [31:0] $end
$var wire 16 ; pc [15:0] $end
$upscope $end
$scope module memory_mapping $end
$var wire 16 < address_virtual [15:0] $end
$var reg 1 5 DataEnable $end
$var reg 1 4 MMIOEnable $end
$var reg 1 3 StackEnable $end
$var reg 16 = address_physical [15:0] $end
$var reg 2 > block_select [1:0] $end
$upscope $end
$upscope $end
$scope module RV $end
$var wire 1 # clk $end
$var wire 32 ? instr [31:0] $end
$var wire 32 @ readData [31:0] $end
$var wire 1 A s_jump $end
$var wire 1 B s_zero $end
$var wire 32 C writeData [31:0] $end
$var wire 2 D s_resSrc [1:0] $end
$var wire 1 E s_regWrite $end
$var wire 7 F s_op [6:0] $end
$var wire 2 G s_immSrc [1:0] $end
$var wire 1 H s_f7 $end
$var wire 3 I s_f3 [2:0] $end
$var wire 1 J s_branch $end
$var wire 1 K s_ALUSrc $end
$var wire 3 L s_ALUControl [2:0] $end
$var wire 16 M pc [15:0] $end
$var wire 16 N address [15:0] $end
$var wire 1 + WE $end
$scope module DataPath $end
$var wire 1 # clk $end
$var wire 32 O instr [31:0] $end
$var wire 1 A jump $end
$var wire 16 P pc [15:0] $end
$var wire 32 Q readData [31:0] $end
$var wire 32 R writeData [31:0] $end
$var wire 1 B zero $end
$var wire 32 S s_srcB [31:0] $end
$var wire 32 T s_srcA [31:0] $end
$var wire 32 U s_res [31:0] $end
$var wire 32 V s_rd2 [31:0] $end
$var wire 16 W s_pcNext [15:0] $end
$var wire 16 X s_pcJump [15:0] $end
$var wire 16 Y s_pcFinal [15:0] $end
$var wire 16 Z s_pc [15:0] $end
$var wire 32 [ s_immExt [31:0] $end
$var wire 16 \ s_addSrc [15:0] $end
$var wire 32 ] s_ALURes [31:0] $end
$var wire 2 ^ resSrc [1:0] $end
$var wire 1 E regWrite $end
$var wire 7 _ op [6:0] $end
$var wire 2 ` immSrc [1:0] $end
$var wire 1 H f7 $end
$var wire 3 a f3 [2:0] $end
$var wire 1 J branch $end
$var wire 16 b address [15:0] $end
$var wire 1 K ALUSrc $end
$var wire 3 c ALUControl [2:0] $end
$var reg 16 d cuatro [15:0] $end
$scope module ALU1 $end
$var wire 32 e res [31:0] $end
$var wire 1 B zero $end
$var wire 32 f srcB [31:0] $end
$var wire 32 g srcA [31:0] $end
$var wire 3 h ALUControl [2:0] $end
$var reg 32 i aux [31:0] $end
$upscope $end
$scope module AdderPCJump $end
$var wire 16 j op1 [15:0] $end
$var wire 16 k res [15:0] $end
$var wire 16 l op2 [15:0] $end
$upscope $end
$scope module AdderPCNext $end
$var wire 16 m res [15:0] $end
$var wire 16 n op2 [15:0] $end
$var wire 16 o op1 [15:0] $end
$upscope $end
$scope module MultBranch $end
$var wire 16 p e1 [15:0] $end
$var wire 16 q e2 [15:0] $end
$var wire 16 r sal [15:0] $end
$var wire 1 J sel $end
$var reg 16 s aux [15:0] $end
$upscope $end
$scope module MultData $end
$var wire 32 t e1 [31:0] $end
$var wire 32 u e2 [31:0] $end
$var wire 32 v e3 [31:0] $end
$var wire 32 w e4 [31:0] $end
$var wire 32 x sal [31:0] $end
$var wire 2 y sel [1:0] $end
$var reg 32 z aux [31:0] $end
$upscope $end
$scope module MultJump $end
$var wire 16 { e1 [15:0] $end
$var wire 16 | e2 [15:0] $end
$var wire 16 } sal [15:0] $end
$var wire 1 A sel $end
$var reg 16 ~ aux [15:0] $end
$upscope $end
$scope module MultSrcB $end
$var wire 32 !" sal [31:0] $end
$var wire 1 K sel $end
$var wire 32 "" e2 [31:0] $end
$var wire 32 #" e1 [31:0] $end
$var reg 32 $" aux [31:0] $end
$upscope $end
$scope module PCReg $end
$var wire 1 # clk $end
$var wire 16 %" pc [15:0] $end
$var wire 16 &" pcNext [15:0] $end
$var reg 16 '" count_reg [15:0] $end
$upscope $end
$scope module regBank $end
$var event 1 (" _ivl_18 $end
$var wire 5 )" a1 [4:0] $end
$var wire 5 *" a2 [4:0] $end
$var wire 5 +" a3 [4:0] $end
$var wire 1 # clk $end
$var wire 32 ," rd1 [31:0] $end
$var wire 32 -" rd2 [31:0] $end
$var wire 32 ." wd3 [31:0] $end
$var wire 1 E we $end
$var integer 32 /" i [31:0] $end
$upscope $end
$scope module sExt $end
$var wire 32 0" instr [31:0] $end
$var wire 2 1" src [1:0] $end
$var wire 32 2" immExt [31:0] $end
$var reg 32 3" immaux [31:0] $end
$upscope $end
$upscope $end
$scope module unitControl $end
$var wire 3 4" f3 [2:0] $end
$var wire 1 H f7 $end
$var wire 1 A jump $end
$var wire 7 5" op [6:0] $end
$var wire 1 B zero $end
$var wire 2 6" resSrc [1:0] $end
$var wire 1 E regWrite $end
$var wire 1 + memWrite $end
$var wire 2 7" immSrc [1:0] $end
$var wire 1 J branch $end
$var wire 1 K aluSrc $end
$var wire 2 8" ALUop [1:0] $end
$var wire 3 9" ALUcontrol [2:0] $end
$scope module ALUDecoder $end
$var wire 3 :" aluControl [2:0] $end
$var wire 3 ;" f3 [2:0] $end
$var wire 1 H f7 $end
$var wire 1 <" op $end
$var wire 2 =" aluOp [1:0] $end
$var reg 3 >" aluControlAux [2:0] $end
$upscope $end
$scope module MainDecoder $end
$var wire 2 ?" aluOp [1:0] $end
$var wire 1 K aluSrc $end
$var wire 1 J branch $end
$var wire 2 @" immSrc [1:0] $end
$var wire 1 A jump $end
$var wire 1 + memWrite $end
$var wire 7 A" op [6:0] $end
$var wire 1 E regWrite $end
$var wire 2 B" resSrc [1:0] $end
$var reg 2 C" aluOpAux [1:0] $end
$var reg 1 D" aluSrcAux $end
$var reg 1 E" branchAux $end
$var reg 2 F" immSrcAux [1:0] $end
$var reg 1 G" jumpAux $end
$var reg 1 H" memWriteAux $end
$var reg 1 I" regWriteAux $end
$var reg 2 J" resSrcAux [1:0] $end
$upscope $end
$upscope $end
$upscope $end
$upscope $end
$upscope $end
$scope module UART_tb $end
$var wire 1 K" rx_empty $end
$var wire 8 L" r_data [7:0] $end
$var wire 1 M" Tx $end
$var reg 1 N" Rx $end
$var reg 1 O" clk $end
$var reg 1 P" rd $end
$var reg 8 Q" w_data [7:0] $end
$var reg 1 R" wr $end
$scope module UUT $end
$var wire 1 N" Rx $end
$var wire 3 S" address [2:0] $end
$var wire 1 O" clk $end
$var wire 1 P" rd $end
$var wire 1 K" rx_empty $end
$var wire 8 T" w_data [7:0] $end
$var wire 1 R" wr $end
$var wire 1 U" s_tx_start $end
$var wire 1 V" s_tx_done_tick $end
$var wire 1 W" s_rx_done_tick $end
$var wire 8 X" s_dout [7:0] $end
$var wire 8 Y" s_din [7:0] $end
$var wire 8 Z" r_data [7:0] $end
$var wire 1 [" full $end
$var wire 1 M" Tx $end
$scope module rbuffer $end
$var wire 3 \" address [2:0] $end
$var wire 1 O" clk $end
$var wire 1 [" full $end
$var wire 1 W" wr $end
$var wire 8 ]" w_data [7:0] $end
$var reg 1 ^" aux_full $end
$var reg 8 _" r_data [7:0] $end
$var reg 3 `" w_ptr [2:0] $end
$upscope $end
$scope module receiver $end
$var wire 1 N" Rx $end
$var wire 1 W" Rx_done_tick $end
$var wire 1 O" clk $end
$var wire 8 a" dout [7:0] $end
$var reg 3 b" r_Bit_Index [2:0] $end
$var reg 8 c" r_Clock_Count [7:0] $end
$var reg 1 d" r_Rx_Data $end
$var reg 1 e" r_Rx_Data_R $end
$var reg 1 f" r_Rx_done_tick $end
$var reg 3 g" r_SM_Main [2:0] $end
$var reg 8 h" r_data_out [7:0] $end
$upscope $end
$scope module tbuffer $end
$var wire 3 i" address [2:0] $end
$var wire 1 O" clk $end
$var wire 1 U" full $end
$var wire 8 j" w_data [7:0] $end
$var wire 1 R" wr $end
$var wire 1 V" rd $end
$var reg 1 k" aux_full $end
$var reg 3 l" count_w [2:0] $end
$var reg 8 m" r_data [7:0] $end
$var reg 3 n" r_ptr [2:0] $end
$upscope $end
$scope module transmitter $end
$var wire 1 O" clk $end
$var wire 8 o" din [7:0] $end
$var wire 1 p" o_Tx_Active $end
$var wire 1 V" tx_done_tick $end
$var wire 1 U" tx_start $end
$var reg 1 M" Tx $end
$var reg 3 q" r_Bit_Index [2:0] $end
$var reg 8 r" r_Clock_Count [7:0] $end
$var reg 3 s" r_SM_Main [2:0] $end
$var reg 1 t" r_Tx_Active $end
$var reg 8 u" r_Tx_Data [7:0] $end
$var reg 1 v" r_Tx_Done $end
$upscope $end
$upscope $end
$upscope $end
$enddefinitions $end
#0
$dumpvars
0v"
b0 u"
0t"
b0 s"
b0 r"
b0 q"
0p"
bx o"
b0 n"
bx m"
b0 l"
0k"
bx j"
bz i"
b0 h"
b0 g"
0f"
1e"
1d"
b0 c"
b0 b"
b0 a"
b0 `"
bx _"
0^"
b0 ]"
bz \"
0["
bx Z"
bx Y"
b0 X"
0W"
0V"
0U"
bx T"
bz S"
xR"
bx Q"
xP"
0O"
1N"
xM"
bx L"
zK"
b0 J"
1I"
0H"
0G"
b0 F"
0E"
1D"
b10 C"
b0 B"
b10011 A"
b0 @"
b10 ?"
b0 >"
b10 ="
0<"
b0 ;"
b0 :"
b0 9"
b10 8"
b0 7"
b0 6"
b10011 5"
b0 4"
b1100 3"
b1100 2"
b0 1"
b110000000000010100010011 0"
b100000 /"
b1100 ."
b0 -"
b0 ,"
b1010 +"
b1100 *"
b0 )"
1("
b0 '"
b100 &"
b0 %"
b1100 $"
b0 #"
b1100 ""
b1100 !"
b100 ~
b100 }
b1100 |
b100 {
b1100 z
b0 y
b1100 x
bz w
b100 v
bx u
b1100 t
b100 s
b100 r
b1100 q
b100 p
b100 o
b0 n
b100 m
b0 l
b1100 k
b1100 j
b1100 i
b0 h
b0 g
b1100 f
b1100 e
b100 d
b0 c
b1100 b
b0 a
b0 `
b10011 _
b0 ^
b1100 ]
b100 \
b1100 [
b0 Z
b100 Y
b1100 X
b100 W
b0 V
b1100 U
b0 T
b1100 S
b0 R
bx Q
b0 P
b110000000000010100010011 O
b1100 N
b0 M
b0 L
1K
0J
b0 I
0H
b0 G
b10011 F
1E
b0 D
b0 C
0B
0A
bx @
b110000000000010100010011 ?
b0 >
bx =
b1100 <
b0 ;
b110000000000010100010011 :
b100000 9
bx 8
b0 7
bx 6
05
04
03
bx 2
b1100 1
b0 0
b110000000000010100010011 /
b0 .
bx -
b0 ,
0+
b1100 *
b110000000000010100010011 )
b0 (
bx '
b0 &
b0 %
b1100 $
0#
b1100 "
b0 !
$end
#1000
b1001 U
b1001 x
b1001 ."
b1001 z
b1001 "
b1001 $
b1001 *
b1001 1
b1001 <
b1001 N
b1001 b
b1001 ]
b1001 e
b1001 i
b1001 t
b1001 j
b1001 q
b1001 S
b1001 f
b1001 !"
b1001 $"
b1000 Y
b1000 }
b1000 &"
b1000 ~
b1001 *"
b1011 +"
b1001 [
b1001 ""
b1001 2"
b1001 3"
1M"
b1000 v
b1000 W
b1000 m
b1000 {
b1101 X
b1101 k
b1101 |
b100100000000010110010011 )
b100100000000010110010011 /
b100100000000010110010011 :
b100100000000010110010011 ?
b100100000000010110010011 O
b100100000000010110010011 0"
b100 (
b100 .
b100 ;
b100 M
b100 P
b100 Z
b100 l
b100 n
b100 %"
b100 '"
1O"
1#
#2000
0O"
0#
#3000
b11 U
b11 x
b11 ."
b11 z
b11 "
b11 $
b11 *
b11 1
b11 <
b11 N
b11 b
b11 ]
b11 e
b11 i
b11 t
b1 L
b1 c
b1 h
b1 9"
b1 :"
b1 >"
1<"
0K
0D"
b10000001011 j
b10000001011 q
b1001 S
b1001 f
b1001 !"
b1001 $"
b1100 Y
b1100 }
b1100 &"
b1100 ~
b1100 T
b1100 g
b1100 ,"
b1010 )"
b1001 !
b1001 %
b1001 &
b1001 ,
b1001 7
b1001 C
b1001 R
b1001 V
b1001 #"
b1001 -"
b1011 *"
b1100 +"
1H
b110011 F
b110011 _
b110011 5"
b110011 A"
b10000001011 [
b10000001011 ""
b10000001011 2"
b10000001011 3"
b1100 v
b1100 W
b1100 m
b1100 {
b10000010011 X
b10000010011 k
b10000010011 |
b1000000101101010000011000110011 )
b1000000101101010000011000110011 /
b1000000101101010000011000110011 :
b1000000101101010000011000110011 ?
b1000000101101010000011000110011 O
b1000000101101010000011000110011 0"
b1000 (
b1000 .
b1000 ;
b1000 M
b1000 P
b1000 Z
b1000 l
b1000 n
b1000 %"
b1000 '"
1O"
1#
#4000
0O"
0#
#5000
bx U
bx x
bx ."
bx z
bx "
bx $
bx *
bx 1
bx <
bx N
bx b
bx ]
bx e
bx i
bx t
x<"
bx j
bx q
bx S
bx f
bx !"
bx $"
b10000 Y
b10000 }
b10000 &"
b10000 ~
bx T
bx g
bx ,"
bx )"
bx !
bx %
bx &
bx ,
bx 7
bx C
bx R
bx V
bx #"
bx -"
bx *"
bx +"
xH
bx I
bx a
bx 4"
bx ;"
bx F
bx _
bx 5"
bx A"
bx [
bx ""
bx 2"
bx 3"
b10000 v
b10000 W
b10000 m
b10000 {
bx X
bx k
bx |
bx )
bx /
bx :
bx ?
bx O
bx 0"
b1100 (
b1100 .
b1100 ;
b1100 M
b1100 P
b1100 Z
b1100 l
b1100 n
b1100 %"
b1100 '"
1O"
1#
#6000
0O"
0#
#7000
b10100 Y
b10100 }
b10100 &"
b10100 ~
b10100 v
b10100 W
b10100 m
b10100 {
b10000 (
b10000 .
b10000 ;
b10000 M
b10000 P
b10000 Z
b10000 l
b10000 n
b10000 %"
b10000 '"
1O"
1#
#8000
0O"
0#
#9000
b11000 Y
b11000 }
b11000 &"
b11000 ~
b11000 v
b11000 W
b11000 m
b11000 {
b10100 (
b10100 .
b10100 ;
b10100 M
b10100 P
b10100 Z
b10100 l
b10100 n
b10100 %"
b10100 '"
1O"
1#
#10000
0O"
0#
#11000
b11100 Y
b11100 }
b11100 &"
b11100 ~
b11100 v
b11100 W
b11100 m
b11100 {
b11000 (
b11000 .
b11000 ;
b11000 M
b11000 P
b11000 Z
b11000 l
b11000 n
b11000 %"
b11000 '"
1O"
1#
#12000
0O"
0#
#13000
b100000 Y
b100000 }
b100000 &"
b100000 ~
b100000 v
b100000 W
b100000 m
b100000 {
b11100 (
b11100 .
b11100 ;
b11100 M
b11100 P
b11100 Z
b11100 l
b11100 n
b11100 %"
b11100 '"
1O"
1#
#14000
0O"
0#
#15000
b100100 Y
b100100 }
b100100 &"
b100100 ~
b100100 v
b100100 W
b100100 m
b100100 {
b100000 (
b100000 .
b100000 ;
b100000 M
b100000 P
b100000 Z
b100000 l
b100000 n
b100000 %"
b100000 '"
1O"
1#
#16000
0O"
0#
#17000
b101000 Y
b101000 }
b101000 &"
b101000 ~
b101000 v
b101000 W
b101000 m
b101000 {
b100100 (
b100100 .
b100100 ;
b100100 M
b100100 P
b100100 Z
b100100 l
b100100 n
b100100 %"
b100100 '"
1O"
1#
#18000
0O"
0#
#19000
b101100 Y
b101100 }
b101100 &"
b101100 ~
b101100 v
b101100 W
b101100 m
b101100 {
b101000 (
b101000 .
b101000 ;
b101000 M
b101000 P
b101000 Z
b101000 l
b101000 n
b101000 %"
b101000 '"
1O"
1#
#20000
0O"
0#
0N"
#21000
b110000 Y
b110000 }
b110000 &"
b110000 ~
0e"
b110000 v
b110000 W
b110000 m
b110000 {
b101100 (
b101100 .
b101100 ;
b101100 M
b101100 P
b101100 Z
b101100 l
b101100 n
b101100 %"
b101100 '"
1O"
1#
#22000
0O"
0#
#23000
b110100 Y
b110100 }
b110100 &"
b110100 ~
0d"
b110100 v
b110100 W
b110100 m
b110100 {
b110000 (
b110000 .
b110000 ;
b110000 M
b110000 P
b110000 Z
b110000 l
b110000 n
b110000 %"
b110000 '"
1O"
1#
#24000
0O"
0#
#25000
b111000 Y
b111000 }
b111000 &"
b111000 ~
b1 g"
b111000 v
b111000 W
b111000 m
b111000 {
b110100 (
b110100 .
b110100 ;
b110100 M
b110100 P
b110100 Z
b110100 l
b110100 n
b110100 %"
b110100 '"
1O"
1#
#26000
0O"
0#
#27000
b111100 Y
b111100 }
b111100 &"
b111100 ~
b1 c"
b111100 v
b111100 W
b111100 m
b111100 {
b111000 (
b111000 .
b111000 ;
b111000 M
b111000 P
b111000 Z
b111000 l
b111000 n
b111000 %"
b111000 '"
1O"
1#
#28000
0O"
0#
#29000
b1000000 Y
b1000000 }
b1000000 &"
b1000000 ~
b10 c"
b1000000 v
b1000000 W
b1000000 m
b1000000 {
b111100 (
b111100 .
b111100 ;
b111100 M
b111100 P
b111100 Z
b111100 l
b111100 n
b111100 %"
b111100 '"
1O"
1#
#30000
0O"
0#
#31000
b1000100 Y
b1000100 }
b1000100 &"
b1000100 ~
b11 c"
b1000100 v
b1000100 W
b1000100 m
b1000100 {
b1000000 (
b1000000 .
b1000000 ;
b1000000 M
b1000000 P
b1000000 Z
b1000000 l
b1000000 n
b1000000 %"
b1000000 '"
1O"
1#
#32000
0O"
0#
#33000
b1001000 Y
b1001000 }
b1001000 &"
b1001000 ~
b100 c"
b1001000 v
b1001000 W
b1001000 m
b1001000 {
b1000100 (
b1000100 .
b1000100 ;
b1000100 M
b1000100 P
b1000100 Z
b1000100 l
b1000100 n
b1000100 %"
b1000100 '"
1O"
1#
#34000
0O"
0#
#35000
b1001100 Y
b1001100 }
b1001100 &"
b1001100 ~
b101 c"
b1001100 v
b1001100 W
b1001100 m
b1001100 {
b1001000 (
b1001000 .
b1001000 ;
b1001000 M
b1001000 P
b1001000 Z
b1001000 l
b1001000 n
b1001000 %"
b1001000 '"
1O"
1#
#36000
0O"
0#
#37000
b1010000 Y
b1010000 }
b1010000 &"
b1010000 ~
b110 c"
b1010000 v
b1010000 W
b1010000 m
b1010000 {
b1001100 (
b1001100 .
b1001100 ;
b1001100 M
b1001100 P
b1001100 Z
b1001100 l
b1001100 n
b1001100 %"
b1001100 '"
1O"
1#
#38000
0O"
0#
#39000
b1010100 Y
b1010100 }
b1010100 &"
b1010100 ~
b111 c"
b1010100 v
b1010100 W
b1010100 m
b1010100 {
b1010000 (
b1010000 .
b1010000 ;
b1010000 M
b1010000 P
b1010000 Z
b1010000 l
b1010000 n
b1010000 %"
b1010000 '"
1O"
1#
#40000
0O"
0#
#41000
b1011000 Y
b1011000 }
b1011000 &"
b1011000 ~
b1000 c"
b1011000 v
b1011000 W
b1011000 m
b1011000 {
b1010100 (
b1010100 .
b1010100 ;
b1010100 M
b1010100 P
b1010100 Z
b1010100 l
b1010100 n
b1010100 %"
b1010100 '"
1O"
1#
#42000
0O"
0#
#43000
b1011100 Y
b1011100 }
b1011100 &"
b1011100 ~
b1001 c"
b1011100 v
b1011100 W
b1011100 m
b1011100 {
b1011000 (
b1011000 .
b1011000 ;
b1011000 M
b1011000 P
b1011000 Z
b1011000 l
b1011000 n
b1011000 %"
b1011000 '"
1O"
1#
#44000
0O"
0#
#45000
b1100000 Y
b1100000 }
b1100000 &"
b1100000 ~
b1010 c"
b1100000 v
b1100000 W
b1100000 m
b1100000 {
b1011100 (
b1011100 .
b1011100 ;
b1011100 M
b1011100 P
b1011100 Z
b1011100 l
b1011100 n
b1011100 %"
b1011100 '"
1O"
1#
#46000
0O"
0#
#47000
b1100100 Y
b1100100 }
b1100100 &"
b1100100 ~
b1011 c"
b1100100 v
b1100100 W
b1100100 m
b1100100 {
b1100000 (
b1100000 .
b1100000 ;
b1100000 M
b1100000 P
b1100000 Z
b1100000 l
b1100000 n
b1100000 %"
b1100000 '"
1O"
1#
#48000
0O"
0#
#49000
b1101000 Y
b1101000 }
b1101000 &"
b1101000 ~
b1100 c"
b1101000 v
b1101000 W
b1101000 m
b1101000 {
b1100100 (
b1100100 .
b1100100 ;
b1100100 M
b1100100 P
b1100100 Z
b1100100 l
b1100100 n
b1100100 %"
b1100100 '"
1O"
1#
#50000
0O"
0#
#51000
b1101100 Y
b1101100 }
b1101100 &"
b1101100 ~
b1101 c"
b1101100 v
b1101100 W
b1101100 m
b1101100 {
b1101000 (
b1101000 .
b1101000 ;
b1101000 M
b1101000 P
b1101000 Z
b1101000 l
b1101000 n
b1101000 %"
b1101000 '"
1O"
1#
#52000
0O"
0#
#53000
b1110000 Y
b1110000 }
b1110000 &"
b1110000 ~
b1110 c"
b1110000 v
b1110000 W
b1110000 m
b1110000 {
b1101100 (
b1101100 .
b1101100 ;
b1101100 M
b1101100 P
b1101100 Z
b1101100 l
b1101100 n
b1101100 %"
b1101100 '"
1O"
1#
#54000
0O"
0#
#55000
b1110100 Y
b1110100 }
b1110100 &"
b1110100 ~
b1111 c"
b1110100 v
b1110100 W
b1110100 m
b1110100 {
b1110000 (
b1110000 .
b1110000 ;
b1110000 M
b1110000 P
b1110000 Z
b1110000 l
b1110000 n
b1110000 %"
b1110000 '"
1O"
1#
#56000
0O"
0#
#57000
b1111000 Y
b1111000 }
b1111000 &"
b1111000 ~
b10000 c"
b1111000 v
b1111000 W
b1111000 m
b1111000 {
b1110100 (
b1110100 .
b1110100 ;
b1110100 M
b1110100 P
b1110100 Z
b1110100 l
b1110100 n
b1110100 %"
b1110100 '"
1O"
1#
#58000
0O"
0#
#59000
b1111100 Y
b1111100 }
b1111100 &"
b1111100 ~
b10001 c"
b1111100 v
b1111100 W
b1111100 m
b1111100 {
b1111000 (
b1111000 .
b1111000 ;
b1111000 M
b1111000 P
b1111000 Z
b1111000 l
b1111000 n
b1111000 %"
b1111000 '"
1O"
1#
#60000
0O"
0#
#61000
b10000000 Y
b10000000 }
b10000000 &"
b10000000 ~
b10010 c"
b10000000 v
b10000000 W
b10000000 m
b10000000 {
b1111100 (
b1111100 .
b1111100 ;
b1111100 M
b1111100 P
b1111100 Z
b1111100 l
b1111100 n
b1111100 %"
b1111100 '"
1O"
1#
#62000
0O"
0#
#63000
b10000100 Y
b10000100 }
b10000100 &"
b10000100 ~
b10011 c"
b10000100 v
b10000100 W
b10000100 m
b10000100 {
b10000000 (
b10000000 .
b10000000 ;
b10000000 M
b10000000 P
b10000000 Z
b10000000 l
b10000000 n
b10000000 %"
b10000000 '"
1O"
1#
#64000
0O"
0#
#65000
b10001000 Y
b10001000 }
b10001000 &"
b10001000 ~
b10 g"
b0 c"
b10001000 v
b10001000 W
b10001000 m
b10001000 {
b10000100 (
b10000100 .
b10000100 ;
b10000100 M
b10000100 P
b10000100 Z
b10000100 l
b10000100 n
b10000100 %"
b10000100 '"
1O"
1#
#66000
0O"
0#
#67000
b10001100 Y
b10001100 }
b10001100 &"
b10001100 ~
b1 c"
b10001100 v
b10001100 W
b10001100 m
b10001100 {
b10001000 (
b10001000 .
b10001000 ;
b10001000 M
b10001000 P
b10001000 Z
b10001000 l
b10001000 n
b10001000 %"
b10001000 '"
1O"
1#
#68000
0O"
0#
#69000
b10010000 Y
b10010000 }
b10010000 &"
b10010000 ~
b10 c"
b10010000 v
b10010000 W
b10010000 m
b10010000 {
b10001100 (
b10001100 .
b10001100 ;
b10001100 M
b10001100 P
b10001100 Z
b10001100 l
b10001100 n
b10001100 %"
b10001100 '"
1O"
1#
#70000
0O"
0#
#71000
b10010100 Y
b10010100 }
b10010100 &"
b10010100 ~
b11 c"
b10010100 v
b10010100 W
b10010100 m
b10010100 {
b10010000 (
b10010000 .
b10010000 ;
b10010000 M
b10010000 P
b10010000 Z
b10010000 l
b10010000 n
b10010000 %"
b10010000 '"
1O"
1#
#72000
0O"
0#
#73000
b10011000 Y
b10011000 }
b10011000 &"
b10011000 ~
b100 c"
b10011000 v
b10011000 W
b10011000 m
b10011000 {
b10010100 (
b10010100 .
b10010100 ;
b10010100 M
b10010100 P
b10010100 Z
b10010100 l
b10010100 n
b10010100 %"
b10010100 '"
1O"
1#
#74000
0O"
0#
#75000
b10011100 Y
b10011100 }
b10011100 &"
b10011100 ~
b101 c"
b10011100 v
b10011100 W
b10011100 m
b10011100 {
b10011000 (
b10011000 .
b10011000 ;
b10011000 M
b10011000 P
b10011000 Z
b10011000 l
b10011000 n
b10011000 %"
b10011000 '"
1O"
1#
#76000
0O"
0#
#77000
b10100000 Y
b10100000 }
b10100000 &"
b10100000 ~
b110 c"
b10100000 v
b10100000 W
b10100000 m
b10100000 {
b10011100 (
b10011100 .
b10011100 ;
b10011100 M
b10011100 P
b10011100 Z
b10011100 l
b10011100 n
b10011100 %"
b10011100 '"
1O"
1#
#78000
0O"
0#
#79000
b10100100 Y
b10100100 }
b10100100 &"
b10100100 ~
b111 c"
b10100100 v
b10100100 W
b10100100 m
b10100100 {
b10100000 (
b10100000 .
b10100000 ;
b10100000 M
b10100000 P
b10100000 Z
b10100000 l
b10100000 n
b10100000 %"
b10100000 '"
1O"
1#
#80000
0O"
0#
#81000
b10101000 Y
b10101000 }
b10101000 &"
b10101000 ~
b1000 c"
b10101000 v
b10101000 W
b10101000 m
b10101000 {
b10100100 (
b10100100 .
b10100100 ;
b10100100 M
b10100100 P
b10100100 Z
b10100100 l
b10100100 n
b10100100 %"
b10100100 '"
1O"
1#
#82000
0O"
0#
#83000
b10101100 Y
b10101100 }
b10101100 &"
b10101100 ~
b1001 c"
b10101100 v
b10101100 W
b10101100 m
b10101100 {
b10101000 (
b10101000 .
b10101000 ;
b10101000 M
b10101000 P
b10101000 Z
b10101000 l
b10101000 n
b10101000 %"
b10101000 '"
1O"
1#
#84000
0O"
0#
#85000
b10110000 Y
b10110000 }
b10110000 &"
b10110000 ~
b1010 c"
b10110000 v
b10110000 W
b10110000 m
b10110000 {
b10101100 (
b10101100 .
b10101100 ;
b10101100 M
b10101100 P
b10101100 Z
b10101100 l
b10101100 n
b10101100 %"
b10101100 '"
1O"
1#
#86000
0O"
0#
#87000
b10110100 Y
b10110100 }
b10110100 &"
b10110100 ~
b1011 c"
b10110100 v
b10110100 W
b10110100 m
b10110100 {
b10110000 (
b10110000 .
b10110000 ;
b10110000 M
b10110000 P
b10110000 Z
b10110000 l
b10110000 n
b10110000 %"
b10110000 '"
1O"
1#
#88000
0O"
0#
#89000
b10111000 Y
b10111000 }
b10111000 &"
b10111000 ~
b1100 c"
b10111000 v
b10111000 W
b10111000 m
b10111000 {
b10110100 (
b10110100 .
b10110100 ;
b10110100 M
b10110100 P
b10110100 Z
b10110100 l
b10110100 n
b10110100 %"
b10110100 '"
1O"
1#
#90000
0O"
0#
#91000
b10111100 Y
b10111100 }
b10111100 &"
b10111100 ~
b1101 c"
b10111100 v
b10111100 W
b10111100 m
b10111100 {
b10111000 (
b10111000 .
b10111000 ;
b10111000 M
b10111000 P
b10111000 Z
b10111000 l
b10111000 n
b10111000 %"
b10111000 '"
1O"
1#
#92000
0O"
0#
#93000
b11000000 Y
b11000000 }
b11000000 &"
b11000000 ~
b1110 c"
b11000000 v
b11000000 W
b11000000 m
b11000000 {
b10111100 (
b10111100 .
b10111100 ;
b10111100 M
b10111100 P
b10111100 Z
b10111100 l
b10111100 n
b10111100 %"
b10111100 '"
1O"
1#
#94000
0O"
0#
#95000
b11000100 Y
b11000100 }
b11000100 &"
b11000100 ~
b1111 c"
b11000100 v
b11000100 W
b11000100 m
b11000100 {
b11000000 (
b11000000 .
b11000000 ;
b11000000 M
b11000000 P
b11000000 Z
b11000000 l
b11000000 n
b11000000 %"
b11000000 '"
1O"
1#
#96000
0O"
0#
#97000
b11001000 Y
b11001000 }
b11001000 &"
b11001000 ~
b10000 c"
b11001000 v
b11001000 W
b11001000 m
b11001000 {
b11000100 (
b11000100 .
b11000100 ;
b11000100 M
b11000100 P
b11000100 Z
b11000100 l
b11000100 n
b11000100 %"
b11000100 '"
1O"
1#
#98000
0O"
0#
#99000
b11001100 Y
b11001100 }
b11001100 &"
b11001100 ~
b10001 c"
b11001100 v
b11001100 W
b11001100 m
b11001100 {
b11001000 (
b11001000 .
b11001000 ;
b11001000 M
b11001000 P
b11001000 Z
b11001000 l
b11001000 n
b11001000 %"
b11001000 '"
1O"
1#
#100000
0O"
0#
1N"
#101000
b11010000 Y
b11010000 }
b11010000 &"
b11010000 ~
1e"
b10010 c"
b11010000 v
b11010000 W
b11010000 m
b11010000 {
b11001100 (
b11001100 .
b11001100 ;
b11001100 M
b11001100 P
b11001100 Z
b11001100 l
b11001100 n
b11001100 %"
b11001100 '"
1O"
1#
#102000
0O"
0#
#103000
b11010100 Y
b11010100 }
b11010100 &"
b11010100 ~
b10011 c"
1d"
b11010100 v
b11010100 W
b11010100 m
b11010100 {
b11010000 (
b11010000 .
b11010000 ;
b11010000 M
b11010000 P
b11010000 Z
b11010000 l
b11010000 n
b11010000 %"
b11010000 '"
1O"
1#
#104000
0O"
0#
